Etapa1_DivisorDeFrequencia/simulation/qsim/Etapa1_DivisorDeFrequencia.msim.vcd
$comment
	File created using the following command:
		vcd file Etapa1_DivisorDeFrequencia.msim.vcd -direction
$end
$date
	Fri Mar 22 10:09:05 2024
$end
$version
	ModelSim Version 2020.1
$end
$timescale
	1ps
$end

$scope module Etapa1_DivisorDeFrequencia_vlg_vec_tst $end
$var reg 1 ! clock $end
$var wire 1 " clockLento $end

$scope module i1 $end
$var wire 1 # gnd $end
$var wire 1 $ vcc $end
$var wire 1 % unknown $end
$var tri1 1 & devclrn $end
$var tri1 1 ' devpor $end
$var tri1 1 ( devoe $end
$var wire 1 ) clockLento~output_o $end
$var wire 1 * clock~input_o $end
$var wire 1 + Add0~13_sumout $end
$var wire 1 , LessThan0~0_combout $end
$var wire 1 - LessThan0~1_combout $end
$var wire 1 . LessThan0~2_combout $end
$var wire 1 / LessThan0~3_combout $end
$var wire 1 0 LessThan0~4_combout $end
$var wire 1 1 LessThan0~5_combout $end
$var wire 1 2 LessThan0~6_combout $end
$var wire 1 3 LessThan0~7_combout $end
$var wire 1 4 Add0~14 $end
$var wire 1 5 Add0~17_sumout $end
$var wire 1 6 Add0~18 $end
$var wire 1 7 Add0~9_sumout $end
$var wire 1 8 Add0~10 $end
$var wire 1 9 Add0~5_sumout $end
$var wire 1 : Add0~6 $end
$var wire 1 ; Add0~33_sumout $end
$var wire 1 < Add0~34 $end
$var wire 1 = Add0~29_sumout $end
$var wire 1 > Add0~30 $end
$var wire 1 ? Add0~25_sumout $end
$var wire 1 @ Add0~26 $end
$var wire 1 A Add0~21_sumout $end
$var wire 1 B Add0~22 $end
$var wire 1 C Add0~53_sumout $end
$var wire 1 D Add0~54 $end
$var wire 1 E Add0~49_sumout $end
$var wire 1 F Add0~50 $end
$var wire 1 G Add0~45_sumout $end
$var wire 1 H Add0~46 $end
$var wire 1 I Add0~41_sumout $end
$var wire 1 J Add0~42 $end
$var wire 1 K Add0~37_sumout $end
$var wire 1 L Add0~38 $end
$var wire 1 M Add0~65_sumout $end
$var wire 1 N Add0~66 $end
$var wire 1 O Add0~85_sumout $end
$var wire 1 P Add0~86 $end
$var wire 1 Q Add0~81_sumout $end
$var wire 1 R Add0~82 $end
$var wire 1 S Add0~77_sumout $end
$var wire 1 T Add0~78 $end
$var wire 1 U Add0~73_sumout $end
$var wire 1 V Add0~74 $end
$var wire 1 W Add0~69_sumout $end
$var wire 1 X Add0~70 $end
$var wire 1 Y Add0~61_sumout $end
$var wire 1 Z Add0~62 $end
$var wire 1 [ Add0~125_sumout $end
$var wire 1 \ Add0~126 $end
$var wire 1 ] Add0~121_sumout $end
$var wire 1 ^ Add0~122 $end
$var wire 1 _ Add0~117_sumout $end
$var wire 1 ` Add0~118 $end
$var wire 1 a Add0~113_sumout $end
$var wire 1 b Add0~114 $end
$var wire 1 c Add0~109_sumout $end
$var wire 1 d Add0~110 $end
$var wire 1 e Add0~57_sumout $end
$var wire 1 f Add0~58 $end
$var wire 1 g Add0~105_sumout $end
$var wire 1 h Add0~106 $end
$var wire 1 i Add0~101_sumout $end
$var wire 1 j Add0~102 $end
$var wire 1 k Add0~97_sumout $end
$var wire 1 l Add0~98 $end
$var wire 1 m Add0~93_sumout $end
$var wire 1 n Add0~94 $end
$var wire 1 o Add0~89_sumout $end
$var wire 1 p Add0~90 $end
$var wire 1 q Add0~1_sumout $end
$var wire 1 r clockLento~0_combout $end
$var wire 1 s clockLento~reg0_q $end
$var wire 1 t contador [31] $end
$var wire 1 u contador [30] $end
$var wire 1 v contador [29] $end
$var wire 1 w contador [28] $end
$var wire 1 x contador [27] $end
$var wire 1 y contador [26] $end
$var wire 1 z contador [25] $end
$var wire 1 { contador [24] $end
$var wire 1 | contador [23] $end
$var wire 1 } contador [22] $end
$var wire 1 ~ contador [21] $end
$var wire 1 !! contador [20] $end
$var wire 1 "! contador [19] $end
$var wire 1 #! contador [18] $end
$var wire 1 $! contador [17] $end
$var wire 1 %! contador [16] $end
$var wire 1 &! contador [15] $end
$var wire 1 '! contador [14] $end
$var wire 1 (! contador [13] $end
$var wire 1 )! contador [12] $end
$var wire 1 *! contador [11] $end
$var wire 1 +! contador [10] $end
$var wire 1 ,! contador [9] $end
$var wire 1 -! contador [8] $end
$var wire 1 .! contador [7] $end
$var wire 1 /! contador [6] $end
$var wire 1 0! contador [5] $end
$var wire 1 1! contador [4] $end
$var wire 1 2! contador [3] $end
$var wire 1 3! contador [2] $end
$var wire 1 4! contador [1] $end
$var wire 1 5! contador [0] $end
$upscope $end
$upscope $end
$enddefinitions $end
#0
$dumpvars
0!
0"
0#
1$
x%
1&
1'
1(
0)
0*
1+
0,
0-
1.
1/
10
11
12
03
04
05
06
07
08
09
0:
0;
0<
0=
0>
0?
0@
0A
0B
0C
0D
0E
0F
0G
0H
0I
0J
0K
0L
0M
0N
0O
0P
0Q
0R
0S
0T
0U
0V
0W
0X
0Y
0Z
0[
0\
0]
0^
0_
0`
0a
0b
0c
0d
0e
0f
0g
0h
0i
0j
0k
0l
0m
0n
0o
0p
0q
0r
0s
05!
04!
03!
02!
01!
00!
0/!
0.!
0-!
0,!
0+!
0*!
0)!
0(!
0'!
0&!
0%!
0$!
0#!
0"!
0!!
0~
0}
0|
0{
0z
0y
0x
0w
0v
0u
0t
$end
#1000
1!
1*
15!
14
0+
15
#2000
0!
0*
#3000
1!
1*
14!
05!
04
16
1+
05
06
15
17
07
#4000
0!
0*
#5000
1!
1*
15!
14
0+
16
05
17
#6000
0!
0*
#7000
1!
1*
13!
04!
05!
04
06
18
1+
15
07
08
05
17
19
09
#8000
0!
0*
#9000
1!
1*
15!
14
0+
15
#10000
0!
0*
#11000
1!
1*
14!
05!
04
16
1+
05
06
18
15
07
08
17
19
09
#12000
0!
0*
#13000
1!
1*
15!
14
0+
16
05
18
07
19
#14000
0!
0*
#15000
1!
1*
12!
03!
04!
05!
04
06
08
1:
1+
15
17
09
0:
05
07
19
1;
0;
#16000
0!
0*
#17000
1!
1*
15!
14
0+
15
#18000
0!
0*
#19000
1!
1*
14!
05!
04
16
1+
05
06
15
17
07
#20000
0!
0*
#21000
1!
1*
15!
14
0+
16
05
17
#22000
0!
0*
#23000
1!
1*
13!
04!
05!
04
06
18
1+
15
07
08
1:
05
17
09
0:
19
1;
0;
#24000
0!
0*
#25000
1!
1*
15!
14
0+
15
#26000
0!
0*
#27000
1!
1*
14!
05!
04
16
1+
05
06
18
15
07
08
1:
17
09
0:
19
1;
0;
#28000
0!
0*
#29000
1!
1*
15!
14
0+
16
05
18
07
1:
09
1;
#30000
0!
0*
#31000
1!
1*
11!
02!
03!
04!
05!
04
06
08
0:
1<
1+
15
17
19
0;
0<
05
07
09
1;
1=
0=
#32000
0!
0*
#33000
1!
1*
15!
14
0+
15
#34000
0!
0*
#35000
1!
1*
14!
05!
04
16
1+
05
06
15
17
07
#36000
0!
0*
#37000
1!
1*
15!
14
0+
16
05
17
#38000
0!
0*
#39000
1!
1*
13!
04!
05!
04
06
18
1+
15
07
08
05
17
19
09
#40000
0!
0*
#41000
1!
1*
15!
14
0+
15
#42000
0!
0*
#43000
1!
1*
14!
05!
04
16
1+
05
06
18
15
07
08
17
19
09
#44000
0!
0*
#45000
1!
1*
15!
14
0+
16
05
18
07
19
#46000
0!
0*
#47000
1!
1*
12!
03!
04!
05!
04
06
08
1:
1+
15
17
09
0:
1<
05
07
19
0;
0<
1;
1=
0=
#48000
0!
0*
#49000
1!
1*
15!
14
0+
15
#50000
0!
0*
#51000
1!
1*
14!
05!
04
16
1+
05
06
15
17
07
#52000
0!
0*
#53000
1!
1*
15!
14
0+
16
05
17
#54000
0!
0*
#55000
1!
1*
13!
04!
05!
04
06
18
1+
15
07
08
1:
05
17
09
0:
1<
19
0;
0<
1;
1=
0=
#56000
0!
0*
#57000
1!
1*
15!
14
0+
15
#58000
0!
0*
#59000
1!
1*
14!
05!
04
16
1+
05
06
18
15
07
08
1:
17
09
0:
1<
19
0;
0<
1;
1=
0=
#60000
0!
0*
#61000
1!
1*
15!
14
0+
16
05
18
07
1:
09
1<
0;
1=
#62000
0!
0*
#63000
1!
1*
10!
01!
02!
03!
04!
05!
04
06
08
0:
0<
1>
1+
15
17
19
1;
0=
0>
05
07
09
0;
1=
1?
0?
#64000
0!
0*
#65000
1!
1*
15!
14
0+
15
#66000
0!
0*
#67000
1!
1*
14!
05!
04
16
1+
05
06
15
17
07
#68000
0!
0*
#69000
1!
1*
15!
14
0+
16
05
17
#70000
0!
0*
#71000
1!
1*
13!
04!
05!
04
06
18
1+
15
07
08
05
17
19
09
#72000
0!
0*
#73000
1!
1*
15!
14
0+
15
#74000
0!
0*
#75000
1!
1*
14!
05!
04
16
1+
05
06
18
15
07
08
17
19
09
#76000
0!
0*
#77000
1!
1*
15!
14
0+
16
05
18
07
19
#78000
0!
0*
#79000
1!
1*
12!
03!
04!
05!
04
06
08
1:
1+
15
17
09
0:
05
07
19
1;
0;
#80000
0!
0*
#81000
1!
1*
15!
14
0+
15
#82000
0!
0*
#83000
1!
1*
14!
05!
04
16
1+
05
06
15
17
07
#84000
0!
0*
#85000
1!
1*
15!
14
0+
16
05
17
#86000
0!
0*
#87000
1!
1*
13!
04!
05!
04
06
18
1+
15
07
08
1:
05
17
09
0:
19
1;
0;
#88000
0!
0*
#89000
1!
1*
15!
14
0+
15
#90000
0!
0*
#91000
1!
1*
14!
05!
04
16
1+
05
06
18
15
07
08
1:
17
09
0:
19
1;
0;
#92000
0!
0*
#93000
1!
1*
15!
14
0+
16
05
18
07
1:
09
1;
#94000
0!
0*
#95000
1!
1*
11!
02!
03!
04!
05!
04
06
08
0:
1<
1+
15
17
19
0;
0<
1>
05
07
09
1;
0=
0>
1=
1?
0?
#96000
0!
0*
#97000
1!
1*
15!
14
0+
15
#98000
0!
0*
#99000
1!
1*
14!
05!
04
16
1+
05
06
15
17
07
#100000
0!
0*
#101000
1!
1*
15!
14
0+
16
05
17
#102000
0!
0*
#103000
1!
1*
13!
04!
05!
04
06
18
1+
15
07
08
05
17
19
09
#104000
0!
0*
#105000
1!
1*
15!
14
0+
15
#106000
0!
0*
#107000
1!
1*
14!
05!
04
16
1+
05
06
18
15
07
08
17
19
09
#108000
0!
0*
#109000
1!
1*
15!
14
0+
16
05
18
07
19
#110000
0!
0*
#111000
1!
1*
12!
03!
04!
05!
04
06
08
1:
1+
15
17
09
0:
1<
05
07
19
0;
0<
1>
1;
0=
0>
1=
1?
0?
#112000
0!
0*
#113000
1!
1*
15!
14
0+
15
#114000
0!
0*
#115000
1!
1*
14!
05!
04
16
1+
05
06
15
17
07
#116000
0!
0*
#117000
1!
1*
15!
14
0+
16
05
17
#118000
0!
0*
#119000
1!
1*
13!
04!
05!
04
06
18
1+
15
07
08
1:
05
17
09
0:
1<
19
0;
0<
1>
1;
0=
0>
1=
1?
0?
#120000
0!
0*
#121000
1!
1*
15!
14
0+
15
#122000
0!
0*
#123000
1!
1*
14!
05!
04
16
1+
05
06
18
15
07
08
1:
17
09
0:
1<
19
0;
0<
1>
1;
0=
0>
1=
1?
0?
#124000
0!
0*
#125000
1!
1*
15!
14
0+
16
05
18
07
1:
09
1<
0;
1>
0=
1?
#126000
0!
0*
#127000
1!
1*
1/!
00!
01!
02!
03!
04!
05!
04
06
08
0:
0<
0>
1@
1+
15
17
19
1;
1=
0?
0@
05
07
09
0;
0=
1?
1A
0A
#128000
0!
0*
#129000
1!
1*
15!
14
0+
15
#130000
0!
0*
#131000
1!
1*
14!
05!
04
16
1+
05
06
15
17
07
#132000
0!
0*
#133000
1!
1*
15!
14
0+
16
05
17
#134000
0!
0*
#135000
1!
1*
13!
04!
05!
04
06
18
1+
15
07
08
05
17
19
09
#136000
0!
0*
#137000
1!
1*
15!
14
0+
15
#138000
0!
0*
#139000
1!
1*
14!
05!
04
16
1+
05
06
18
15
07
08
17
19
09
#140000
0!
0*
#141000
1!
1*
15!
14
0+
16
05
18
07
19
#142000
0!
0*
#143000
1!
1*
12!
03!
04!
05!
04
06
08
1:
1+
15
17
09
0:
05
07
19
1;
0;
#144000
0!
0*
#145000
1!
1*
15!
14
0+
15
#146000
0!
0*
#147000
1!
1*
14!
05!
04
16
1+
05
06
15
17
07
#148000
0!
0*
#149000
1!
1*
15!
14
0+
16
05
17
#150000
0!
0*
#151000
1!
1*
13!
04!
05!
04
06
18
1+
15
07
08
1:
05
17
09
0:
19
1;
0;
#152000
0!
0*
#153000
1!
1*
15!
14
0+
15
#154000
0!
0*
#155000
1!
1*
14!
05!
04
16
1+
05
06
18
15
07
08
1:
17
09
0:
19
1;
0;
#156000
0!
0*
#157000
1!
1*
15!
14
0+
16
05
18
07
1:
09
1;
#158000
0!
0*
#159000
1!
1*
11!
02!
03!
04!
05!
04
06
08
0:
1<
1+
15
17
19
0;
0<
05
07
09
1;
1=
0=
#160000
0!
0*
#161000
1!
1*
15!
14
0+
15
#162000
0!
0*
#163000
1!
1*
14!
05!
04
16
1+
05
06
15
17
07
#164000
0!
0*
#165000
1!
1*
15!
14
0+
16
05
17
#166000
0!
0*
#167000
1!
1*
13!
04!
05!
04
06
18
1+
15
07
08
05
17
19
09
#168000
0!
0*
#169000
1!
1*
15!
14
0+
15
#170000
0!
0*
#171000
1!
1*
14!
05!
04
16
1+
05
06
18
15
07
08
17
19
09
#172000
0!
0*
#173000
1!
1*
15!
14
0+
16
05
18
07
19
#174000
0!
0*
#175000
1!
1*
12!
03!
04!
05!
04
06
08
1:
1+
15
17
09
0:
1<
05
07
19
0;
0<
1;
1=
0=
#176000
0!
0*
#177000
1!
1*
15!
14
0+
15
#178000
0!
0*
#179000
1!
1*
14!
05!
04
16
1+
05
06
15
17
07
#180000
0!
0*
#181000
1!
1*
15!
14
0+
16
05
17
#182000
0!
0*
#183000
1!
1*
13!
04!
05!
04
06
18
1+
15
07
08
1:
05
17
09
0:
1<
19
0;
0<
1;
1=
0=
#184000
0!
0*
#185000
1!
1*
15!
14
0+
15
#186000
0!
0*
#187000
1!
1*
14!
05!
04
16
1+
05
06
18
15
07
08
1:
17
09
0:
1<
19
0;
0<
1;
1=
0=
#188000
0!
0*
#189000
1!
1*
15!
14
0+
16
05
18
07
1:
09
1<
0;
1=
#190000
0!
0*
#191000
1!
1*
10!
01!
02!
03!
04!
05!
04
06
08
0:
0<
1>
1+
15
17
19
1;
0=
0>
1@
05
07
09
0;
1=
0?
0@
1?
1A
0A
#192000
0!
0*
#193000
1!
1*
15!
14
0+
15
#194000
0!
0*
#195000
1!
1*
14!
05!
04
16
1+
05
06
15
17
07
#196000
0!
0*
#197000
1!
1*
15!
14
0+
16
05
17
#198000
0!
0*
#199000
1!
1*
13!
04!
05!
04
06
18
1+
15
07
08
05
17
19
09
#200000
0!
0*
#201000
1!
1*
15!
14
0+
15
#202000
0!
0*
#203000
1!
1*
14!
05!
04
16
1+
05
06
18
15
07
08
17
19
09
#204000
0!
0*
#205000
1!
1*
15!
14
0+
16
05
18
07
19
#206000
0!
0*
#207000
1!
1*
12!
03!
04!
05!
04
06
08
1:
1+
15
17
09
0:
05
07
19
1;
0;
#208000
0!
0*
#209000
1!
1*
15!
14
0+
15
#210000
0!
0*
#211000
1!
1*
14!
05!
04
16
1+
05
06
15
17
07
#212000
0!
0*
#213000
1!
1*
15!
14
0+
16
05
17
#214000
0!
0*
#215000
1!
1*
13!
04!
05!
04
06
18
1+
15
07
08
1:
05
17
09
0:
19
1;
0;
#216000
0!
0*
#217000
1!
1*
15!
14
0+
15
#218000
0!
0*
#219000
1!
1*
14!
05!
04
16
1+
05
06
18
15
07
08
1:
17
09
0:
19
1;
0;
#220000
0!
0*
#221000
1!
1*
15!
14
0+
16
05
18
07
1:
09
1;
#222000
0!
0*
#223000
1!
1*
11!
02!
03!
04!
05!
04
06
08
0:
1<
1+
15
17
19
0;
0<
1>
05
07
09
1;
0=
0>
1@
1=
0?
0@
1?
1A
0A
#224000
0!
0*
#225000
1!
1*
15!
14
0+
15
#226000
0!
0*
#227000
1!
1*
14!
05!
04
16
1+
05
06
15
17
07
#228000
0!
0*
#229000
1!
1*
15!
14
0+
16
05
17
#230000
0!
0*
#231000
1!
1*
13!
04!
05!
04
06
18
1+
15
07
08
05
17
19
09
#232000
0!
0*
#233000
1!
1*
15!
14
0+
15
#234000
0!
0*
#235000
1!
1*
14!
05!
04
16
1+
05
06
18
15
07
08
17
19
09
#236000
0!
0*
#237000
1!
1*
15!
14
0+
16
05
18
07
19
#238000
0!
0*
#239000
1!
1*
12!
03!
04!
05!
04
06
08
1:
1+
15
17
09
0:
1<
05
07
19
0;
0<
1>
1;
0=
0>
1@
1=
0?
0@
1?
1A
0A
#240000
0!
0*
#241000
1!
1*
15!
14
0+
15
#242000
0!
0*
#243000
1!
1*
14!
05!
04
16
1+
05
06
15
17
07
#244000
0!
0*
#245000
1!
1*
15!
14
0+
16
05
17
#246000
0!
0*
#247000
1!
1*
13!
04!
05!
04
06
18
1+
15
07
08
1:
05
17
09
0:
1<
19
0;
0<
1>
1;
0=
0>
1@
1=
0?
0@
1?
1A
0A
#248000
0!
0*
#249000
1!
1*
15!
14
0+
15
#250000
0!
0*
#251000
1!
1*
14!
05!
04
16
1+
05
06
18
15
07
08
1:
17
09
0:
1<
19
0;
0<
1>
1;
0=
0>
1@
1=
0?
0@
1?
1A
0A
#252000
0!
0*
#253000
1!
1*
15!
14
0+
16
05
18
07
1:
09
1<
0;
1>
0=
1@
0?
1A
#254000
0!
0*
#255000
1!
1*
1.!
0/!
00!
01!
02!
03!
04!
05!
04
06
08
0:
0<
0>
0@
1B
1+
15
17
19
1;
1=
1?
0A
0B
05
07
09
0;
0=
0?
1A
1C
0C
#256000
0!
0*
#257000
1!
1*
15!
14
0+
15
#258000
0!
0*
#259000
1!
1*
14!
05!
04
16
1+
05
06
15
17
07
#260000
0!
0*
#261000
1!
1*
15!
14
0+
16
05
17
#262000
0!
0*
#263000
1!
1*
13!
04!
05!
04
06
18
1+
15
07
08
05
17
19
09
#264000
0!
0*
#265000
1!
1*
15!
14
0+
15
#266000
0!
0*
#267000
1!
1*
14!
05!
04
16
1+
05
06
18
15
07
08
17
19
09
#268000
0!
0*
#269000
1!
1*
15!
14
0+
16
05
18
07
19
#270000
0!
0*
#271000
1!
1*
12!
03!
04!
05!
04
06
08
1:
1+
15
17
09
0:
05
07
19
1;
0;
#272000
0!
0*
#273000
1!
1*
15!
14
0+
15
#274000
0!
0*
#275000
1!
1*
14!
05!
04
16
1+
05
06
15
17
07
#276000
0!
0*
#277000
1!
1*
15!
14
0+
16
05
17
#278000
0!
0*
#279000
1!
1*
13!
04!
05!
04
06
18
1+
15
07
08
1:
05
17
09
0:
19
1;
0;
#280000
0!
0*
#281000
1!
1*
15!
14
0+
15
#282000
0!
0*
#283000
1!
1*
14!
05!
04
16
1+
05
06
18
15
07
08
1:
17
09
0:
19
1;
0;
#284000
0!
0*
#285000
1!
1*
15!
14
0+
16
05
18
07
1:
09
1;
#286000
0!
0*
#287000
1!
1*
11!
02!
03!
04!
05!
04
06
08
0:
1<
1+
15
17
19
0;
0<
05
07
09
1;
1=
0=
#288000
0!
0*
#289000
1!
1*
15!
14
0+
15
#290000
0!
0*
#291000
1!
1*
14!
05!
04
16
1+
05
06
15
17
07
#292000
0!
0*
#293000
1!
1*
15!
14
0+
16
05
17
#294000
0!
0*
#295000
1!
1*
13!
04!
05!
04
06
18
1+
15
07
08
05
17
19
09
#296000
0!
0*
#297000
1!
1*
15!
14
0+
15
#298000
0!
0*
#299000
1!
1*
14!
05!
04
16
1+
05
06
18
15
07
08
17
19
09
#300000
0!
0*
#301000
1!
1*
15!
14
0+
16
05
18
07
19
#302000
0!
0*
#303000
1!
1*
12!
03!
04!
05!
04
06
08
1:
1+
15
17
09
0:
1<
05
07
19
0;
0<
1;
1=
0=
#304000
0!
0*
#305000
1!
1*
15!
14
0+
15
#306000
0!
0*
#307000
1!
1*
14!
05!
04
16
1+
05
06
15
17
07
#308000
0!
0*
#309000
1!
1*
15!
14
0+
16
05
17
#310000
0!
0*
#311000
1!
1*
13!
04!
05!
04
06
18
1+
15
07
08
1:
05
17
09
0:
1<
19
0;
0<
1;
1=
0=
#312000
0!
0*
#313000
1!
1*
15!
14
0+
15
#314000
0!
0*
#315000
1!
1*
14!
05!
04
16
1+
05
06
18
15
07
08
1:
17
09
0:
1<
19
0;
0<
1;
1=
0=
#316000
0!
0*
#317000
1!
1*
15!
14
0+
16
05
18
07
1:
09
1<
0;
1=
#318000
0!
0*
#319000
1!
1*
10!
01!
02!
03!
04!
05!
04
06
08
0:
0<
1>
1+
15
17
19
1;
0=
0>
05
07
09
0;
1=
1?
0?
#320000
0!
0*
#321000
1!
1*
15!
14
0+
15
#322000
0!
0*
#323000
1!
1*
14!
05!
04
16
1+
05
06
15
17
07
#324000
0!
0*
#325000
1!
1*
15!
14
0+
16
05
17
#326000
0!
0*
#327000
1!
1*
13!
04!
05!
04
06
18
1+
15
07
08
05
17
19
09
#328000
0!
0*
#329000
1!
1*
15!
14
0+
15
#330000
0!
0*
#331000
1!
1*
14!
05!
04
16
1+
05
06
18
15
07
08
17
19
09
#332000
0!
0*
#333000
1!
1*
15!
14
0+
16
05
18
07
19
#334000
0!
0*
#335000
1!
1*
12!
03!
04!
05!
04
06
08
1:
1+
15
17
09
0:
05
07
19
1;
0;
#336000
0!
0*
#337000
1!
1*
15!
14
0+
15
#338000
0!
0*
#339000
1!
1*
14!
05!
04
16
1+
05
06
15
17
07
#340000
0!
0*
#341000
1!
1*
15!
14
0+
16
05
17
#342000
0!
0*
#343000
1!
1*
13!
04!
05!
04
06
18
1+
15
07
08
1:
05
17
09
0:
19
1;
0;
#344000
0!
0*
#345000
1!
1*
15!
14
0+
15
#346000
0!
0*
#347000
1!
1*
14!
05!
04
16
1+
05
06
18
15
07
08
1:
17
09
0:
19
1;
0;
#348000
0!
0*
#349000
1!
1*
15!
14
0+
16
05
18
07
1:
09
1;
#350000
0!
0*
#351000
1!
1*
11!
02!
03!
04!
05!
04
06
08
0:
1<
1+
15
17
19
0;
0<
1>
05
07
09
1;
0=
0>
1=
1?
0?
#352000
0!
0*
#353000
1!
1*
15!
14
0+
15
#354000
0!
0*
#355000
1!
1*
14!
05!
04
16
1+
05
06
15
17
07
#356000
0!
0*
#357000
1!
1*
15!
14
0+
16
05
17
#358000
0!
0*
#359000
1!
1*
13!
04!
05!
04
06
18
1+
15
07
08
05
17
19
09
#360000
0!
0*
#361000
1!
1*
15!
14
0+
15
#362000
0!
0*
#363000
1!
1*
14!
05!
04
16
1+
05
06
18
15
07
08
17
19
09
#364000
0!
0*
#365000
1!
1*
15!
14
0+
16
05
18
07
19
#366000
0!
0*
#367000
1!
1*
12!
03!
04!
05!
04
06
08
1:
1+
15
17
09
0:
1<
05
07
19
0;
0<
1>
1;
0=
0>
1=
1?
0?
#368000
0!
0*
#369000
1!
1*
15!
14
0+
15
#370000
0!
0*
#371000
1!
1*
14!
05!
04
16
1+
05
06
15
17
07
#372000
0!
0*
#373000
1!
1*
15!
14
0+
16
05
17
#374000
0!
0*
#375000
1!
1*
13!
04!
05!
04
06
18
1+
15
07
08
1:
05
17
09
0:
1<
19
0;
0<
1>
1;
0=
0>
1=
1?
0?
#376000
0!
0*
#377000
1!
1*
15!
14
0+
15
#378000
0!
0*
#379000
1!
1*
14!
05!
04
16
1+
05
06
18
15
07
08
1:
17
09
0:
1<
19
0;
0<
1>
1;
0=
0>
1=
1?
0?
#380000
0!
0*
#381000
1!
1*
15!
14
0+
16
05
18
07
1:
09
1<
0;
1>
0=
1?
#382000
0!
0*
#383000
1!
1*
1/!
00!
01!
02!
03!
04!
05!
04
06
08
0:
0<
0>
1@
1+
15
17
19
1;
1=
0?
0@
1B
05
07
09
0;
0=
1?
0A
0B
1A
1C
0C
#384000
0!
0*
#385000
1!
1*
15!
14
0+
15
#386000
0!
0*
#387000
1!
1*
14!
05!
04
16
1+
05
06
15
17
07
#388000
0!
0*
#389000
1!
1*
15!
14
0+
16
05
17
#390000
0!
0*
#391000
1!
1*
13!
04!
05!
04
06
18
1+
15
07
08
05
17
19
09
#392000
0!
0*
#393000
1!
1*
15!
14
0+
15
#394000
0!
0*
#395000
1!
1*
14!
05!
04
16
1+
05
06
18
15
07
08
17
19
09
#396000
0!
0*
#397000
1!
1*
15!
14
0+
16
05
18
07
19
#398000
0!
0*
#399000
1!
1*
12!
03!
04!
05!
04
06
08
1:
1+
15
17
09
0:
05
07
19
1;
0;
#400000
0!
0*
#401000
1!
1*
15!
14
0+
15
#402000
0!
0*
#403000
1!
1*
14!
05!
04
16
1+
05
06
15
17
07
#404000
0!
0*
#405000
1!
1*
15!
14
0+
16
05
17
#406000
0!
0*
#407000
1!
1*
13!
04!
05!
04
06
18
1+
15
07
08
1:
05
17
09
0:
19
1;
0;
#408000
0!
0*
#409000
1!
1*
15!
14
0+
15
#410000
0!
0*
#411000
1!
1*
14!
05!
04
16
1+
05
06
18
15
07
08
1:
17
09
0:
19
1;
0;
#412000
0!
0*
#413000
1!
1*
15!
14
0+
16
05
18
07
1:
09
1;
#414000
0!
0*
#415000
1!
1*
11!
02!
03!
04!
05!
04
06
08
0:
1<
1+
15
17
19
0;
0<
05
07
09
1;
1=
0=
#416000
0!
0*
#417000
1!
1*
15!
14
0+
15
#418000
0!
0*
#419000
1!
1*
14!
05!
04
16
1+
05
06
15
17
07
#420000
0!
0*
#421000
1!
1*
15!
14
0+
16
05
17
#422000
0!
0*
#423000
1!
1*
13!
04!
05!
04
06
18
1+
15
07
08
05
17
19
09
#424000
0!
0*
#425000
1!
1*
15!
14
0+
15
#426000
0!
0*
#427000
1!
1*
14!
05!
04
16
1+
05
06
18
15
07
08
17
19
09
#428000
0!
0*
#429000
1!
1*
15!
14
0+
16
05
18
07
19
#430000
0!
0*
#431000
1!
1*
12!
03!
04!
05!
04
06
08
1:
1+
15
17
09
0:
1<
05
07
19
0;
0<
1;
1=
0=
#432000
0!
0*
#433000
1!
1*
15!
14
0+
15
#434000
0!
0*
#435000
1!
1*
14!
05!
04
16
1+
05
06
15
17
07
#436000
0!
0*
#437000
1!
1*
15!
14
0+
16
05
17
#438000
0!
0*
#439000
1!
1*
13!
04!
05!
04
06
18
1+
15
07
08
1:
05
17
09
0:
1<
19
0;
0<
1;
1=
0=
#440000
0!
0*
#441000
1!
1*
15!
14
0+
15
#442000
0!
0*
#443000
1!
1*
14!
05!
04
16
1+
05
06
18
15
07
08
1:
17
09
0:
1<
19
0;
0<
1;
1=
0=
#444000
0!
0*
#445000
1!
1*
15!
14
0+
16
05
18
07
1:
09
1<
0;
1=
#446000
0!
0*
#447000
1!
1*
10!
01!
02!
03!
04!
05!
04
06
08
0:
0<
1>
1+
15
17
19
1;
0=
0>
1@
05
07
09
0;
1=
0?
0@
1B
1?
0A
0B
1A
1C
0C
#448000
0!
0*
#449000
1!
1*
15!
14
0+
15
#450000
0!
0*
#451000
1!
1*
14!
05!
04
16
1+
05
06
15
17
07
#452000
0!
0*
#453000
1!
1*
15!
14
0+
16
05
17
#454000
0!
0*
#455000
1!
1*
13!
04!
05!
04
06
18
1+
15
07
08
05
17
19
09
#456000
0!
0*
#457000
1!
1*
15!
14
0+
15
#458000
0!
0*
#459000
1!
1*
14!
05!
04
16
1+
05
06
18
15
07
08
17
19
09
#460000
0!
0*
#461000
1!
1*
15!
14
0+
16
05
18
07
19
#462000
0!
0*
#463000
1!
1*
12!
03!
04!
05!
04
06
08
1:
1+
15
17
09
0:
05
07
19
1;
0;
#464000
0!
0*
#465000
1!
1*
15!
14
0+
15
#466000
0!
0*
#467000
1!
1*
14!
05!
04
16
1+
05
06
15
17
07
#468000
0!
0*
#469000
1!
1*
15!
14
0+
16
05
17
#470000
0!
0*
#471000
1!
1*
13!
04!
05!
04
06
18
1+
15
07
08
1:
05
17
09
0:
19
1;
0;
#472000
0!
0*
#473000
1!
1*
15!
14
0+
15
#474000
0!
0*
#475000
1!
1*
14!
05!
04
16
1+
05
06
18
15
07
08
1:
17
09
0:
19
1;
0;
#476000
0!
0*
#477000
1!
1*
15!
14
0+
16
05
18
07
1:
09
1;
#478000
0!
0*
#479000
1!
1*
11!
02!
03!
04!
05!
04
06
08
0:
1<
1,
1+
15
17
19
0;
0<
1>
05
07
09
1;
0=
0>
1@
1=
0?
0@
1B
1?
0A
0B
1A
1C
0C
#480000
0!
0*
#481000
1!
1*
15!
14
0+
15
#482000
0!
0*
#483000
1!
1*
14!
05!
04
16
1+
05
06
15
17
07
#484000
0!
0*
#485000
1!
1*
15!
14
0+
16
05
17
#486000
0!
0*
#487000
1!
1*
13!
04!
05!
04
06
18
1+
15
07
08
05
17
19
09
#488000
0!
0*
#489000
1!
1*
15!
14
0+
15
#490000
0!
0*
#491000
1!
1*
14!
05!
04
16
1+
05
06
18
15
07
08
17
19
09
#492000
0!
0*
#493000
1!
1*
15!
14
0+
16
05
18
07
19
#494000
0!
0*
#495000
1!
1*
12!
03!
04!
05!
04
06
08
1:
1+
15
17
09
0:
1<
05
07
19
0;
0<
1>
1;
0=
0>
1@
1=
0?
0@
1B
1?
0A
0B
1A
1C
0C
#496000
0!
0*
#497000
1!
1*
15!
14
0+
15
#498000
0!
0*
#499000
1!
1*
14!
05!
04
16
1+
05
06
15
17
07
#500000
0!
0*
#501000
1!
1*
15!
1-
14
0+
16
13
05
1r
17
#502000
0!
0*
#503000
1!
1*
0.!
0/!
00!
01!
02!
04!
05!
1s
1)
0-
04
06
0,
1"
1+
15
09
0;
0=
0?
0A
0r
03
05
07
1r
#504000
0!
0*
#505000
1!
1*
15!
14
0+
15
#506000
0!
0*
#507000
1!
1*
14!
05!
04
16
1+
05
06
15
17
07
