Etapa3_DecodificadorBinarioParaBCD/simulation/qsim/Etapa3_DecodificadorBinarioParaBCD.msim.vcd
$comment
	File created using the following command:
		vcd file Etapa3_DecodificadorBinarioParaBCD.msim.vcd -direction
$end
$date
	Fri Mar 22 13:16:33 2024
$end
$version
	ModelSim Version 2020.1
$end
$timescale
	1ps
$end

$scope module Etapa3_DecodificadorBinarioParaBCD_vlg_vec_tst $end
$var reg 1 ! clock $end
$var reg 4 " numBinario [3:0] $end
$var wire 1 # bitsDezena [3] $end
$var wire 1 $ bitsDezena [2] $end
$var wire 1 % bitsDezena [1] $end
$var wire 1 & bitsDezena [0] $end
$var wire 1 ' bitsUnidade [3] $end
$var wire 1 ( bitsUnidade [2] $end
$var wire 1 ) bitsUnidade [1] $end
$var wire 1 * bitsUnidade [0] $end
$var wire 1 + saidaDezena [3] $end
$var wire 1 , saidaDezena [2] $end
$var wire 1 - saidaDezena [1] $end
$var wire 1 . saidaDezena [0] $end
$var wire 1 / saidaUnidade [3] $end
$var wire 1 0 saidaUnidade [2] $end
$var wire 1 1 saidaUnidade [1] $end
$var wire 1 2 saidaUnidade [0] $end

$scope module i1 $end
$var wire 1 3 gnd $end
$var wire 1 4 vcc $end
$var wire 1 5 unknown $end
$var tri1 1 6 devclrn $end
$var tri1 1 7 devpor $end
$var tri1 1 8 devoe $end
$var wire 1 9 bitsDezena[0]~output_o $end
$var wire 1 : bitsDezena[1]~output_o $end
$var wire 1 ; bitsDezena[2]~output_o $end
$var wire 1 < bitsDezena[3]~output_o $end
$var wire 1 = bitsUnidade[0]~output_o $end
$var wire 1 > bitsUnidade[1]~output_o $end
$var wire 1 ? bitsUnidade[2]~output_o $end
$var wire 1 @ bitsUnidade[3]~output_o $end
$var wire 1 A saidaDezena[0]~output_o $end
$var wire 1 B saidaDezena[1]~output_o $end
$var wire 1 C saidaDezena[2]~output_o $end
$var wire 1 D saidaDezena[3]~output_o $end
$var wire 1 E saidaUnidade[0]~output_o $end
$var wire 1 F saidaUnidade[1]~output_o $end
$var wire 1 G saidaUnidade[2]~output_o $end
$var wire 1 H saidaUnidade[3]~output_o $end
$var wire 1 I clock~input_o $end
$var wire 1 J Add0~5_sumout $end
$var wire 1 K contBinario~0_combout $end
$var wire 1 L bitsUnidade[1]~0_combout $end
$var wire 1 M Add0~6 $end
$var wire 1 N Add0~9_sumout $end
$var wire 1 O contBinario~1_combout $end
$var wire 1 P Add0~10 $end
$var wire 1 Q Add0~125_sumout $end
$var wire 1 R Add0~126 $end
$var wire 1 S Add0~121_sumout $end
$var wire 1 T Add0~122 $end
$var wire 1 U Add0~117_sumout $end
$var wire 1 V Add0~118 $end
$var wire 1 W Add0~113_sumout $end
$var wire 1 X Add0~114 $end
$var wire 1 Y Add0~109_sumout $end
$var wire 1 Z Add0~110 $end
$var wire 1 [ Add0~105_sumout $end
$var wire 1 \ Add0~106 $end
$var wire 1 ] Add0~101_sumout $end
$var wire 1 ^ Add0~102 $end
$var wire 1 _ Add0~97_sumout $end
$var wire 1 ` Add0~98 $end
$var wire 1 a Add0~93_sumout $end
$var wire 1 b Add0~94 $end
$var wire 1 c Add0~89_sumout $end
$var wire 1 d Add0~90 $end
$var wire 1 e Add0~85_sumout $end
$var wire 1 f Add0~86 $end
$var wire 1 g Add0~81_sumout $end
$var wire 1 h Add0~82 $end
$var wire 1 i Add0~77_sumout $end
$var wire 1 j Add0~78 $end
$var wire 1 k Add0~73_sumout $end
$var wire 1 l Add0~74 $end
$var wire 1 m Add0~69_sumout $end
$var wire 1 n Add0~70 $end
$var wire 1 o Add0~65_sumout $end
$var wire 1 p Add0~66 $end
$var wire 1 q Add0~61_sumout $end
$var wire 1 r Add0~62 $end
$var wire 1 s Add0~57_sumout $end
$var wire 1 t Add0~58 $end
$var wire 1 u Add0~53_sumout $end
$var wire 1 v Add0~54 $end
$var wire 1 w Add0~49_sumout $end
$var wire 1 x Add0~50 $end
$var wire 1 y Add0~45_sumout $end
$var wire 1 z Add0~46 $end
$var wire 1 { Add0~41_sumout $end
$var wire 1 | Add0~42 $end
$var wire 1 } Add0~37_sumout $end
$var wire 1 ~ Add0~38 $end
$var wire 1 !! Add0~33_sumout $end
$var wire 1 "! Add0~34 $end
$var wire 1 #! Add0~29_sumout $end
$var wire 1 $! Add0~30 $end
$var wire 1 %! Add0~25_sumout $end
$var wire 1 &! Add0~26 $end
$var wire 1 '! Add0~21_sumout $end
$var wire 1 (! Add0~22 $end
$var wire 1 )! Add0~17_sumout $end
$var wire 1 *! Add0~18 $end
$var wire 1 +! Add0~13_sumout $end
$var wire 1 ,! Add0~14 $end
$var wire 1 -! Add0~1_sumout $end
$var wire 1 .! deveCarregar~0_combout $end
$var wire 1 /! bitsUnidade~2_combout $end
$var wire 1 0! bitsUnidade~4_combout $end
$var wire 1 1! bitsUnidade[2]~reg0_q $end
$var wire 1 2! bitsUnidade[1]~3_combout $end
$var wire 1 3! bitsUnidade[1]~reg0_q $end
$var wire 1 4! numBinario[0]~input_o $end
$var wire 1 5! numBinario[1]~input_o $end
$var wire 1 6! numBinario[2]~input_o $end
$var wire 1 7! numBinario[3]~input_o $end
$var wire 1 8! Mux0~0_combout $end
$var wire 1 9! bitsUnidade~1_combout $end
$var wire 1 :! bitsUnidade[0]~reg0_q $end
$var wire 1 ;! bitsUnidade~5_combout $end
$var wire 1 <! bitsUnidade[3]~reg0_q $end
$var wire 1 =! bitsDezena~0_combout $end
$var wire 1 >! bitsDezena~2_combout $end
$var wire 1 ?! bitsDezena[1]~reg0_q $end
$var wire 1 @! bitsDezena~3_combout $end
$var wire 1 A! bitsDezena[2]~reg0_q $end
$var wire 1 B! bitsDezena~4_combout $end
$var wire 1 C! bitsDezena[3]~reg0_q $end
$var wire 1 D! bitsDezena[1]~1_combout $end
$var wire 1 E! bitsDezena[0]~reg0_q $end
$var wire 1 F! saidaDezena[0]~reg0_q $end
$var wire 1 G! saidaDezena[1]~reg0_q $end
$var wire 1 H! saidaDezena[2]~reg0_q $end
$var wire 1 I! saidaDezena[3]~reg0_q $end
$var wire 1 J! saidaUnidade[0]~reg0_q $end
$var wire 1 K! saidaUnidade[1]~reg0_q $end
$var wire 1 L! saidaUnidade[2]~reg0_q $end
$var wire 1 M! saidaUnidade[3]~reg0_q $end
$var wire 1 N! contBinario [31] $end
$var wire 1 O! contBinario [30] $end
$var wire 1 P! contBinario [29] $end
$var wire 1 Q! contBinario [28] $end
$var wire 1 R! contBinario [27] $end
$var wire 1 S! contBinario [26] $end
$var wire 1 T! contBinario [25] $end
$var wire 1 U! contBinario [24] $end
$var wire 1 V! contBinario [23] $end
$var wire 1 W! contBinario [22] $end
$var wire 1 X! contBinario [21] $end
$var wire 1 Y! contBinario [20] $end
$var wire 1 Z! contBinario [19] $end
$var wire 1 [! contBinario [18] $end
$var wire 1 \! contBinario [17] $end
$var wire 1 ]! contBinario [16] $end
$var wire 1 ^! contBinario [15] $end
$var wire 1 _! contBinario [14] $end
$var wire 1 `! contBinario [13] $end
$var wire 1 a! contBinario [12] $end
$var wire 1 b! contBinario [11] $end
$var wire 1 c! contBinario [10] $end
$var wire 1 d! contBinario [9] $end
$var wire 1 e! contBinario [8] $end
$var wire 1 f! contBinario [7] $end
$var wire 1 g! contBinario [6] $end
$var wire 1 h! contBinario [5] $end
$var wire 1 i! contBinario [4] $end
$var wire 1 j! contBinario [3] $end
$var wire 1 k! contBinario [2] $end
$var wire 1 l! contBinario [1] $end
$var wire 1 m! contBinario [0] $end
$var wire 1 n! deveCarregar [31] $end
$var wire 1 o! deveCarregar [30] $end
$var wire 1 p! deveCarregar [29] $end
$var wire 1 q! deveCarregar [28] $end
$var wire 1 r! deveCarregar [27] $end
$var wire 1 s! deveCarregar [26] $end
$var wire 1 t! deveCarregar [25] $end
$var wire 1 u! deveCarregar [24] $end
$var wire 1 v! deveCarregar [23] $end
$var wire 1 w! deveCarregar [22] $end
$var wire 1 x! deveCarregar [21] $end
$var wire 1 y! deveCarregar [20] $end
$var wire 1 z! deveCarregar [19] $end
$var wire 1 {! deveCarregar [18] $end
$var wire 1 |! deveCarregar [17] $end
$var wire 1 }! deveCarregar [16] $end
$var wire 1 ~! deveCarregar [15] $end
$var wire 1 !" deveCarregar [14] $end
$var wire 1 "" deveCarregar [13] $end
$var wire 1 #" deveCarregar [12] $end
$var wire 1 $" deveCarregar [11] $end
$var wire 1 %" deveCarregar [10] $end
$var wire 1 &" deveCarregar [9] $end
$var wire 1 '" deveCarregar [8] $end
$var wire 1 (" deveCarregar [7] $end
$var wire 1 )" deveCarregar [6] $end
$var wire 1 *" deveCarregar [5] $end
$var wire 1 +" deveCarregar [4] $end
$var wire 1 ," deveCarregar [3] $end
$var wire 1 -" deveCarregar [2] $end
$var wire 1 ." deveCarregar [1] $end
$var wire 1 /" deveCarregar [0] $end
$upscope $end
$upscope $end
$enddefinitions $end
#0
$dumpvars
0!
b0 "
0&
0%
0$
0#
0*
0)
0(
0'
0.
0-
0,
0+
02
01
00
0/
03
14
x5
16
17
18
09
0:
0;
0<
0=
0>
0?
0@
0A
0B
0C
0D
0E
0F
0G
0H
0I
0J
1K
1L
1M
1N
0O
1P
0Q
1R
0S
1T
0U
1V
0W
1X
0Y
1Z
0[
1\
0]
1^
0_
1`
0a
1b
0c
1d
0e
1f
0g
1h
0i
1j
0k
1l
0m
1n
0o
1p
0q
1r
0s
1t
0u
1v
0w
1x
0y
1z
0{
1|
0}
1~
0!!
1"!
0#!
1$!
0%!
1&!
0'!
1(!
0)!
1*!
0+!
1,!
0-!
1.!
0/!
00!
01!
12!
03!
04!
05!
06!
07!
08!
09!
0:!
0;!
0<!
0=!
0>!
0?!
0@!
0A!
0B!
0C!
1D!
0E!
0F!
0G!
0H!
0I!
0J!
0K!
0L!
0M!
0m!
0l!
0k!
0j!
0i!
0h!
0g!
0f!
0e!
0d!
0c!
0b!
0a!
0`!
0_!
0^!
0]!
0\!
0[!
0Z!
0Y!
0X!
0W!
0V!
0U!
0T!
0S!
0R!
0Q!
0P!
0O!
0N!
0/"
z."
z-"
z,"
z+"
z*"
z)"
z("
z'"
z&"
z%"
z$"
z#"
z""
z!"
z~!
z}!
z|!
z{!
zz!
zy!
zx!
zw!
zv!
zu!
zt!
zs!
zr!
zq!
zp!
zo!
zn!
$end
#2500
1!
1I
1/"
1m!
0M
1J
0D!
02!
0L
1>!
1=!
1/!
0.!
0N
0K
1O
#5000
0!
0I
#7500
1!
1I
0/"
1D!
12!
1L
0>!
0=!
0/!
1.!
#10000
0!
0I
#12500
1!
1I
1/"
1l!
0m!
1M
0J
0P
1N
0D!
02!
0L
1>!
1=!
1/!
0.!
1P
0N
0R
1Q
0O
1K
1R
0T
0Q
1S
1O
1T
0V
0S
1U
1V
0X
0U
1W
1X
0Z
0W
1Y
1Z
0\
0Y
1[
1\
0^
0[
1]
1^
0`
0]
1_
1`
0b
0_
1a
1b
0d
0a
1c
1d
0f
0c
1e
1f
0h
0e
1g
1h
0j
0g
1i
1j
0l
0i
1k
1l
0n
0k
1m
1n
0p
0m
1o
1p
0r
0o
1q
1r
0t
0q
1s
1t
0v
0s
1u
1v
0x
0u
1w
1x
0z
0w
1y
1z
0|
0y
1{
1|
0~
0{
1}
1~
0"!
0}
1!!
1"!
0$!
0!!
1#!
1$!
0&!
0#!
1%!
1&!
0(!
0%!
1'!
1(!
0*!
0'!
1)!
1*!
0,!
0)!
1+!
1,!
0+!
1-!
0-!
#15000
0!
0I
#17500
1!
1I
0/"
1D!
12!
1L
0>!
0=!
0/!
1.!
#20000
0!
0I
#22500
1!
1I
1/"
1m!
0M
1J
0D!
02!
0L
1>!
1=!
1/!
0.!
0P
1N
0K
0R
1Q
0O
0T
1S
0V
1U
0X
1W
0Z
1Y
0\
1[
0^
1]
0`
1_
0b
1a
0d
1c
0f
1e
0h
1g
0j
1i
0l
1k
0n
1m
0p
1o
0r
1q
0t
1s
0v
1u
0x
1w
0z
1y
0|
1{
0~
1}
0"!
1!!
0$!
1#!
0&!
1%!
0(!
1'!
0*!
1)!
0,!
1+!
1-!
#25000
0!
0I
#27500
1!
1I
0/"
1D!
12!
1L
0>!
0=!
0/!
1.!
#30000
0!
0I
#32500
1!
1I
1/"
1N!
1O!
1P!
1Q!
1R!
1S!
1T!
1U!
1V!
1W!
1X!
1Y!
1Z!
1[!
1\!
1]!
1^!
1_!
1`!
1a!
1b!
1c!
1d!
1e!
1f!
1g!
1h!
1i!
1j!
1k!
0l!
0m!
1M
0J
1P
0N
1R
1T
1V
1X
1Z
1\
1^
1`
1b
1d
1f
1h
1j
1l
1n
1p
1r
1t
1v
1x
1z
1|
1~
1"!
1$!
1&!
1(!
1*!
1,!
0Q
0S
0U
0W
0Y
0[
0]
0_
0a
0c
0e
0g
0i
0k
0m
0o
0q
0s
0u
0w
0y
0{
0}
0!!
0#!
0%!
0'!
0)!
0+!
0.!
0-!
1>!
1=!
1/!
1N
1Q
1S
1U
1W
1Y
1[
1]
1_
1a
1c
1e
1g
1i
1k
1m
1o
1q
1s
1u
1w
1y
1{
1}
1!!
1#!
1%!
1'!
1)!
1+!
1-!
#35000
0!
0I
#37500
1!
1I
0/"
0N!
0O!
0P!
0Q!
0R!
0S!
0T!
0U!
0V!
0W!
0X!
0Y!
0Z!
0[!
0\!
0]!
0^!
0_!
0`!
0a!
0b!
0c!
0d!
0e!
0f!
0g!
0h!
0i!
0j!
0k!
0Q
0S
0U
0W
0Y
0[
0]
0_
0a
0c
0e
0g
0i
0k
0m
0o
0q
0s
0u
0w
0y
0{
0}
0!!
0#!
0%!
0'!
0)!
0+!
1.!
0-!
1K
0>!
0=!
0/!
#40000
0!
0I
#42500
1!
1I
1/"
1m!
0M
1J
0D!
02!
0L
1>!
1=!
1/!
0.!
0N
0K
1O
#45000
0!
0I
#47500
1!
1I
0/"
1D!
12!
1L
0>!
0=!
0/!
1.!
#50000
0!
0I
#52500
1!
1I
1/"
1l!
0m!
1M
0J
0P
1N
0D!
02!
0L
1>!
1=!
1/!
0.!
1P
0N
0R
1Q
0O
1K
1R
0T
0Q
1S
1O
1T
0V
0S
1U
1V
0X
0U
1W
1X
0Z
0W
1Y
1Z
0\
0Y
1[
1\
0^
0[
1]
1^
0`
0]
1_
1`
0b
0_
1a
1b
0d
0a
1c
1d
0f
0c
1e
1f
0h
0e
1g
1h
0j
0g
1i
1j
0l
0i
1k
1l
0n
0k
1m
1n
0p
0m
1o
1p
0r
0o
1q
1r
0t
0q
1s
1t
0v
0s
1u
1v
0x
0u
1w
1x
0z
0w
1y
1z
0|
0y
1{
1|
0~
0{
1}
1~
0"!
0}
1!!
1"!
0$!
0!!
1#!
1$!
0&!
0#!
1%!
1&!
0(!
0%!
1'!
1(!
0*!
0'!
1)!
1*!
0,!
0)!
1+!
1,!
0+!
1-!
0-!
#55000
0!
0I
#57500
1!
1I
0/"
1D!
12!
1L
0>!
0=!
0/!
1.!
#60000
0!
0I
#62500
1!
1I
1/"
1m!
0M
1J
0D!
02!
0L
1>!
1=!
1/!
0.!
0P
1N
0K
0R
1Q
0O
0T
1S
0V
1U
0X
1W
0Z
1Y
0\
1[
0^
1]
0`
1_
0b
1a
0d
1c
0f
1e
0h
1g
0j
1i
0l
1k
0n
1m
0p
1o
0r
1q
0t
1s
0v
1u
0x
1w
0z
1y
0|
1{
0~
1}
0"!
1!!
0$!
1#!
0&!
1%!
0(!
1'!
0*!
1)!
0,!
1+!
1-!
#65000
0!
0I
#67500
1!
1I
0/"
1D!
12!
1L
0>!
0=!
0/!
1.!
#70000
0!
0I
#72500
1!
1I
1/"
1N!
1O!
1P!
1Q!
1R!
1S!
1T!
1U!
1V!
1W!
1X!
1Y!
1Z!
1[!
1\!
1]!
1^!
1_!
1`!
1a!
1b!
1c!
1d!
1e!
1f!
1g!
1h!
1i!
1j!
1k!
0l!
0m!
1M
0J
1P
0N
1R
1T
1V
1X
1Z
1\
1^
1`
1b
1d
1f
1h
1j
1l
1n
1p
1r
1t
1v
1x
1z
1|
1~
1"!
1$!
1&!
1(!
1*!
1,!
0Q
0S
0U
0W
0Y
0[
0]
0_
0a
0c
0e
0g
0i
0k
0m
0o
0q
0s
0u
0w
0y
0{
0}
0!!
0#!
0%!
0'!
0)!
0+!
0.!
0-!
1>!
1=!
1/!
1N
1Q
1S
1U
1W
1Y
1[
1]
1_
1a
1c
1e
1g
1i
1k
1m
1o
1q
1s
1u
1w
1y
1{
1}
1!!
1#!
1%!
1'!
1)!
1+!
1-!
#75000
0!
0I
#77500
1!
1I
0/"
0N!
0O!
0P!
0Q!
0R!
0S!
0T!
0U!
0V!
0W!
0X!
0Y!
0Z!
0[!
0\!
0]!
0^!
0_!
0`!
0a!
0b!
0c!
0d!
0e!
0f!
0g!
0h!
0i!
0j!
0k!
0Q
0S
0U
0W
0Y
0[
0]
0_
0a
0c
0e
0g
0i
0k
0m
0o
0q
0s
0u
0w
0y
0{
0}
0!!
0#!
0%!
0'!
0)!
0+!
1.!
0-!
1K
0>!
0=!
0/!
#80000
0!
0I
#82500
1!
1I
1/"
1m!
0M
1J
0D!
02!
0L
1>!
1=!
1/!
0.!
0N
0K
1O
#85000
0!
0I
#87500
1!
1I
0/"
1D!
12!
1L
0>!
0=!
0/!
1.!
#90000
0!
0I
#92500
1!
1I
1/"
1l!
0m!
1M
0J
0P
1N
0D!
02!
0L
1>!
1=!
1/!
0.!
1P
0N
0R
1Q
0O
1K
1R
0T
0Q
1S
1O
1T
0V
0S
1U
1V
0X
0U
1W
1X
0Z
0W
1Y
1Z
0\
0Y
1[
1\
0^
0[
1]
1^
0`
0]
1_
1`
0b
0_
1a
1b
0d
0a
1c
1d
0f
0c
1e
1f
0h
0e
1g
1h
0j
0g
1i
1j
0l
0i
1k
1l
0n
0k
1m
1n
0p
0m
1o
1p
0r
0o
1q
1r
0t
0q
1s
1t
0v
0s
1u
1v
0x
0u
1w
1x
0z
0w
1y
1z
0|
0y
1{
1|
0~
0{
1}
1~
0"!
0}
1!!
1"!
0$!
0!!
1#!
1$!
0&!
0#!
1%!
1&!
0(!
0%!
1'!
1(!
0*!
0'!
1)!
1*!
0,!
0)!
1+!
1,!
0+!
1-!
0-!
#95000
0!
0I
#97500
1!
1I
0/"
1D!
12!
1L
0>!
0=!
0/!
1.!
#100000
0!
0I
#102500
1!
1I
1/"
1m!
0M
1J
0D!
02!
0L
1>!
1=!
1/!
0.!
0P
1N
0K
0R
1Q
0O
0T
1S
0V
1U
0X
1W
0Z
1Y
0\
1[
0^
1]
0`
1_
0b
1a
0d
1c
0f
1e
0h
1g
0j
1i
0l
1k
0n
1m
0p
1o
0r
1q
0t
1s
0v
1u
0x
1w
0z
1y
0|
1{
0~
1}
0"!
1!!
0$!
1#!
0&!
1%!
0(!
1'!
0*!
1)!
0,!
1+!
1-!
#105000
0!
0I
#107500
1!
1I
0/"
1D!
12!
1L
0>!
0=!
0/!
1.!
#110000
0!
0I
#112500
1!
1I
1/"
1N!
1O!
1P!
1Q!
1R!
1S!
1T!
1U!
1V!
1W!
1X!
1Y!
1Z!
1[!
1\!
1]!
1^!
1_!
1`!
1a!
1b!
1c!
1d!
1e!
1f!
1g!
1h!
1i!
1j!
1k!
0l!
0m!
1M
0J
1P
0N
1R
1T
1V
1X
1Z
1\
1^
1`
1b
1d
1f
1h
1j
1l
1n
1p
1r
1t
1v
1x
1z
1|
1~
1"!
1$!
1&!
1(!
1*!
1,!
0Q
0S
0U
0W
0Y
0[
0]
0_
0a
0c
0e
0g
0i
0k
0m
0o
0q
0s
0u
0w
0y
0{
0}
0!!
0#!
0%!
0'!
0)!
0+!
0.!
0-!
1>!
1=!
1/!
1N
1Q
1S
1U
1W
1Y
1[
1]
1_
1a
1c
1e
1g
1i
1k
1m
1o
1q
1s
1u
1w
1y
1{
1}
1!!
1#!
1%!
1'!
1)!
1+!
1-!
#115000
0!
0I
#117500
1!
1I
0/"
0N!
0O!
0P!
0Q!
0R!
0S!
0T!
0U!
0V!
0W!
0X!
0Y!
0Z!
0[!
0\!
0]!
0^!
0_!
0`!
0a!
0b!
0c!
0d!
0e!
0f!
0g!
0h!
0i!
0j!
0k!
0Q
0S
0U
0W
0Y
0[
0]
0_
0a
0c
0e
0g
0i
0k
0m
0o
0q
0s
0u
0w
0y
0{
0}
0!!
0#!
0%!
0'!
0)!
0+!
1.!
0-!
1K
0>!
0=!
0/!
#120000
0!
0I
#122500
1!
1I
1/"
1m!
0M
1J
0D!
02!
0L
1>!
1=!
1/!
0.!
0N
0K
1O
#125000
0!
0I
#127500
1!
1I
0/"
1D!
12!
1L
0>!
0=!
0/!
1.!
#130000
0!
0I
#132500
1!
1I
1/"
1l!
0m!
1M
0J
0P
1N
0D!
02!
0L
1>!
1=!
1/!
0.!
1P
0N
0R
1Q
0O
1K
1R
0T
0Q
1S
1O
1T
0V
0S
1U
1V
0X
0U
1W
1X
0Z
0W
1Y
1Z
0\
0Y
1[
1\
0^
0[
1]
1^
0`
0]
1_
1`
0b
0_
1a
1b
0d
0a
1c
1d
0f
0c
1e
1f
0h
0e
1g
1h
0j
0g
1i
1j
0l
0i
1k
1l
0n
0k
1m
1n
0p
0m
1o
1p
0r
0o
1q
1r
0t
0q
1s
1t
0v
0s
1u
1v
0x
0u
1w
1x
0z
0w
1y
1z
0|
0y
1{
1|
0~
0{
1}
1~
0"!
0}
1!!
1"!
0$!
0!!
1#!
1$!
0&!
0#!
1%!
1&!
0(!
0%!
1'!
1(!
0*!
0'!
1)!
1*!
0,!
0)!
1+!
1,!
0+!
1-!
0-!
#135000
0!
0I
#137500
1!
1I
0/"
1D!
12!
1L
0>!
0=!
0/!
1.!
#140000
0!
0I
#142500
1!
1I
1/"
1m!
0M
1J
0D!
02!
0L
1>!
1=!
1/!
0.!
0P
1N
0K
0R
1Q
0O
0T
1S
0V
1U
0X
1W
0Z
1Y
0\
1[
0^
1]
0`
1_
0b
1a
0d
1c
0f
1e
0h
1g
0j
1i
0l
1k
0n
1m
0p
1o
0r
1q
0t
1s
0v
1u
0x
1w
0z
1y
0|
1{
0~
1}
0"!
1!!
0$!
1#!
0&!
1%!
0(!
1'!
0*!
1)!
0,!
1+!
1-!
#145000
0!
0I
#147500
1!
1I
0/"
1D!
12!
1L
0>!
0=!
0/!
1.!
#150000
0!
0I
#152500
1!
1I
1/"
1N!
1O!
1P!
1Q!
1R!
1S!
1T!
1U!
1V!
1W!
1X!
1Y!
1Z!
1[!
1\!
1]!
1^!
1_!
1`!
1a!
1b!
1c!
1d!
1e!
1f!
1g!
1h!
1i!
1j!
1k!
0l!
0m!
1M
0J
1P
0N
1R
1T
1V
1X
1Z
1\
1^
1`
1b
1d
1f
1h
1j
1l
1n
1p
1r
1t
1v
1x
1z
1|
1~
1"!
1$!
1&!
1(!
1*!
1,!
0Q
0S
0U
0W
0Y
0[
0]
0_
0a
0c
0e
0g
0i
0k
0m
0o
0q
0s
0u
0w
0y
0{
0}
0!!
0#!
0%!
0'!
0)!
0+!
0.!
0-!
1>!
1=!
1/!
1N
1Q
1S
1U
1W
1Y
1[
1]
1_
1a
1c
1e
1g
1i
1k
1m
1o
1q
1s
1u
1w
1y
1{
1}
1!!
1#!
1%!
1'!
1)!
1+!
1-!
#155000
0!
0I
#157500
1!
1I
0/"
0N!
0O!
0P!
0Q!
0R!
0S!
0T!
0U!
0V!
0W!
0X!
0Y!
0Z!
0[!
0\!
0]!
0^!
0_!
0`!
0a!
0b!
0c!
0d!
0e!
0f!
0g!
0h!
0i!
0j!
0k!
0Q
0S
0U
0W
0Y
0[
0]
0_
0a
0c
0e
0g
0i
0k
0m
0o
0q
0s
0u
0w
0y
0{
0}
0!!
0#!
0%!
0'!
0)!
0+!
1.!
0-!
1K
0>!
0=!
0/!
#160000
0!
0I
#162500
1!
1I
1/"
1m!
0M
1J
0D!
02!
0L
1>!
1=!
1/!
0.!
0N
0K
1O
#165000
0!
0I
#167500
1!
1I
0/"
1D!
12!
1L
0>!
0=!
0/!
1.!
#170000
0!
0I
#172500
1!
1I
1/"
1l!
0m!
1M
0J
0P
1N
0D!
02!
0L
1>!
1=!
1/!
0.!
1P
0N
0R
1Q
0O
1K
1R
0T
0Q
1S
1O
1T
0V
0S
1U
1V
0X
0U
1W
1X
0Z
0W
1Y
1Z
0\
0Y
1[
1\
0^
0[
1]
1^
0`
0]
1_
1`
0b
0_
1a
1b
0d
0a
1c
1d
0f
0c
1e
1f
0h
0e
1g
1h
0j
0g
1i
1j
0l
0i
1k
1l
0n
0k
1m
1n
0p
0m
1o
1p
0r
0o
1q
1r
0t
0q
1s
1t
0v
0s
1u
1v
0x
0u
1w
1x
0z
0w
1y
1z
0|
0y
1{
1|
0~
0{
1}
1~
0"!
0}
1!!
1"!
0$!
0!!
1#!
1$!
0&!
0#!
1%!
1&!
0(!
0%!
1'!
1(!
0*!
0'!
1)!
1*!
0,!
0)!
1+!
1,!
0+!
1-!
0-!
#175000
0!
0I
#177500
1!
1I
0/"
1D!
12!
1L
0>!
0=!
0/!
1.!
#180000
b1 "
0!
14!
0I
#182500
1!
1I
1/"
1m!
18!
0M
1J
0D!
02!
0L
1>!
1=!
1/!
0.!
0P
1N
0K
0R
1Q
0O
0T
1S
0V
1U
0X
1W
0Z
1Y
0\
1[
0^
1]
0`
1_
0b
1a
0d
1c
0f
1e
0h
1g
0j
1i
0l
1k
0n
1m
0p
1o
0r
1q
0t
1s
0v
1u
0x
1w
0z
1y
0|
1{
0~
1}
0"!
1!!
0$!
1#!
0&!
1%!
0(!
1'!
0*!
1)!
0,!
1+!
1-!
#185000
0!
0I
#187500
1!
1I
0/"
1D!
12!
1L
0>!
0=!
19!
0/!
1.!
#190000
0!
0I
#192500
1!
1I
1/"
1N!
1O!
1P!
1Q!
1R!
1S!
1T!
1U!
1V!
1W!
1X!
1Y!
1Z!
1[!
1\!
1]!
1^!
1_!
1`!
1a!
1b!
1c!
1d!
1e!
1f!
1g!
1h!
1i!
1j!
1k!
0l!
0m!
1:!
1=
08!
1M
0J
1P
0N
1R
1T
1V
1X
1Z
1\
1^
1`
1b
1d
1f
1h
1j
1l
1n
1p
1r
1t
1v
1x
1z
1|
1~
1"!
1$!
1&!
1(!
1*!
1,!
1*
0Q
0S
0U
0W
0Y
0[
0]
0_
0a
0c
0e
0g
0i
0k
0m
0o
0q
0s
0u
0w
0y
0{
0}
0!!
0#!
0%!
0'!
0)!
0+!
0.!
0-!
1>!
1=!
10!
1N
1Q
1S
1U
1W
1Y
1[
1]
1_
1a
1c
1e
1g
1i
1k
1m
1o
1q
1s
1u
1w
1y
1{
1}
1!!
1#!
1%!
1'!
1)!
1+!
1-!
#195000
0!
0I
#197500
1!
1I
0/"
0N!
0O!
0P!
0Q!
0R!
0S!
0T!
0U!
0V!
0W!
0X!
0Y!
0Z!
0[!
0\!
0]!
0^!
0_!
0`!
0a!
0b!
0c!
0d!
0e!
0f!
0g!
0h!
0i!
0j!
0k!
1J!
0:!
0=
1E
12
0*
0Q
0S
0U
0W
0Y
0[
0]
0_
0a
0c
0e
0g
0i
0k
0m
0o
0q
0s
0u
0w
0y
0{
0}
0!!
0#!
0%!
0'!
0)!
0+!
1.!
0-!
1K
0>!
0=!
09!
00!
#200000
0!
0I
#202500
1!
1I
1/"
1m!
0M
1J
0D!
02!
0L
1>!
1=!
1/!
0.!
0N
0K
1O
#205000
0!
0I
#207500
1!
1I
0/"
1D!
12!
1L
0>!
0=!
0/!
1.!
#210000
0!
0I
#212500
1!
1I
1/"
1l!
0m!
1M
0J
0P
1N
0D!
02!
0L
1>!
1=!
1/!
0.!
1P
0N
0R
1Q
0O
1K
1R
0T
0Q
1S
1O
1T
0V
0S
1U
1V
0X
0U
1W
1X
0Z
0W
1Y
1Z
0\
0Y
1[
1\
0^
0[
1]
1^
0`
0]
1_
1`
0b
0_
1a
1b
0d
0a
1c
1d
0f
0c
1e
1f
0h
0e
1g
1h
0j
0g
1i
1j
0l
0i
1k
1l
0n
0k
1m
1n
0p
0m
1o
1p
0r
0o
1q
1r
0t
0q
1s
1t
0v
0s
1u
1v
0x
0u
1w
1x
0z
0w
1y
1z
0|
0y
1{
1|
0~
0{
1}
1~
0"!
0}
1!!
1"!
0$!
0!!
1#!
1$!
0&!
0#!
1%!
1&!
0(!
0%!
1'!
1(!
0*!
0'!
1)!
1*!
0,!
0)!
1+!
1,!
0+!
1-!
0-!
#215000
0!
0I
#217500
1!
1I
0/"
1D!
12!
1L
0>!
0=!
0/!
1.!
#220000
0!
0I
#222500
1!
1I
1/"
1m!
18!
0M
1J
0D!
02!
0L
1>!
1=!
1/!
0.!
0P
1N
0K
0R
1Q
0O
0T
1S
0V
1U
0X
1W
0Z
1Y
0\
1[
0^
1]
0`
1_
0b
1a
0d
1c
0f
1e
0h
1g
0j
1i
0l
1k
0n
1m
0p
1o
0r
1q
0t
1s
0v
1u
0x
1w
0z
1y
0|
1{
0~
1}
0"!
1!!
0$!
1#!
0&!
1%!
0(!
1'!
0*!
1)!
0,!
1+!
1-!
#225000
0!
0I
#227500
1!
1I
0/"
1D!
12!
1L
0>!
0=!
19!
0/!
1.!
#230000
0!
0I
