ProjetoMestre4Bits/simulation/qsim/ProjetoMestre4Bits.msim.vcd
$comment
	File created using the following command:
		vcd file ProjetoMestre4Bits.msim.vcd -direction
$end
$date
	Fri Mar 22 13:18:50 2024
$end
$version
	ModelSim Version 2020.1
$end
$timescale
	1ps
$end

$scope module ProjetoMestre4Bits_vlg_vec_tst $end
$var reg 1 ! clockPrincipal $end
$var wire 1 " debugSaidaClockLento $end
$var wire 1 # debugSaidaFioValorAtual [3] $end
$var wire 1 $ debugSaidaFioValorAtual [2] $end
$var wire 1 % debugSaidaFioValorAtual [1] $end
$var wire 1 & debugSaidaFioValorAtual [0] $end
$var wire 1 ' visorDezena [3] $end
$var wire 1 ( visorDezena [2] $end
$var wire 1 ) visorDezena [1] $end
$var wire 1 * visorDezena [0] $end
$var wire 1 + visorUnidade [3] $end
$var wire 1 , visorUnidade [2] $end
$var wire 1 - visorUnidade [1] $end
$var wire 1 . visorUnidade [0] $end

$scope module i1 $end
$var wire 1 / gnd $end
$var wire 1 0 vcc $end
$var wire 1 1 unknown $end
$var tri1 1 2 devclrn $end
$var tri1 1 3 devpor $end
$var tri1 1 4 devoe $end
$var wire 1 5 visorUnidade[0]~output_o $end
$var wire 1 6 visorUnidade[1]~output_o $end
$var wire 1 7 visorUnidade[2]~output_o $end
$var wire 1 8 visorUnidade[3]~output_o $end
$var wire 1 9 visorDezena[0]~output_o $end
$var wire 1 : visorDezena[1]~output_o $end
$var wire 1 ; visorDezena[2]~output_o $end
$var wire 1 < visorDezena[3]~output_o $end
$var wire 1 = debugSaidaClockLento~output_o $end
$var wire 1 > debugSaidaFioValorAtual[0]~output_o $end
$var wire 1 ? debugSaidaFioValorAtual[1]~output_o $end
$var wire 1 @ debugSaidaFioValorAtual[2]~output_o $end
$var wire 1 A debugSaidaFioValorAtual[3]~output_o $end
$var wire 1 B clockPrincipal~input_o $end
$var wire 1 C etapa3_DecodificadorBinarioParaBCD|Add0~5_sumout $end
$var wire 1 D etapa3_DecodificadorBinarioParaBCD|contBinario~0_combout $end
$var wire 1 E etapa3_DecodificadorBinarioParaBCD|bitsDezena[0]~0_combout $end
$var wire 1 F etapa3_DecodificadorBinarioParaBCD|Add0~6 $end
$var wire 1 G etapa3_DecodificadorBinarioParaBCD|Add0~9_sumout $end
$var wire 1 H etapa3_DecodificadorBinarioParaBCD|contBinario~1_combout $end
$var wire 1 I etapa3_DecodificadorBinarioParaBCD|Add0~10 $end
$var wire 1 J etapa3_DecodificadorBinarioParaBCD|Add0~125_sumout $end
$var wire 1 K etapa3_DecodificadorBinarioParaBCD|Add0~126 $end
$var wire 1 L etapa3_DecodificadorBinarioParaBCD|Add0~121_sumout $end
$var wire 1 M etapa3_DecodificadorBinarioParaBCD|Add0~122 $end
$var wire 1 N etapa3_DecodificadorBinarioParaBCD|Add0~117_sumout $end
$var wire 1 O etapa3_DecodificadorBinarioParaBCD|Add0~118 $end
$var wire 1 P etapa3_DecodificadorBinarioParaBCD|Add0~113_sumout $end
$var wire 1 Q etapa3_DecodificadorBinarioParaBCD|Add0~114 $end
$var wire 1 R etapa3_DecodificadorBinarioParaBCD|Add0~109_sumout $end
$var wire 1 S etapa3_DecodificadorBinarioParaBCD|Add0~110 $end
$var wire 1 T etapa3_DecodificadorBinarioParaBCD|Add0~105_sumout $end
$var wire 1 U etapa3_DecodificadorBinarioParaBCD|Add0~106 $end
$var wire 1 V etapa3_DecodificadorBinarioParaBCD|Add0~101_sumout $end
$var wire 1 W etapa3_DecodificadorBinarioParaBCD|Add0~102 $end
$var wire 1 X etapa3_DecodificadorBinarioParaBCD|Add0~97_sumout $end
$var wire 1 Y etapa3_DecodificadorBinarioParaBCD|Add0~98 $end
$var wire 1 Z etapa3_DecodificadorBinarioParaBCD|Add0~93_sumout $end
$var wire 1 [ etapa3_DecodificadorBinarioParaBCD|Add0~94 $end
$var wire 1 \ etapa3_DecodificadorBinarioParaBCD|Add0~89_sumout $end
$var wire 1 ] etapa3_DecodificadorBinarioParaBCD|Add0~90 $end
$var wire 1 ^ etapa3_DecodificadorBinarioParaBCD|Add0~85_sumout $end
$var wire 1 _ etapa3_DecodificadorBinarioParaBCD|Add0~86 $end
$var wire 1 ` etapa3_DecodificadorBinarioParaBCD|Add0~81_sumout $end
$var wire 1 a etapa3_DecodificadorBinarioParaBCD|Add0~82 $end
$var wire 1 b etapa3_DecodificadorBinarioParaBCD|Add0~77_sumout $end
$var wire 1 c etapa3_DecodificadorBinarioParaBCD|Add0~78 $end
$var wire 1 d etapa3_DecodificadorBinarioParaBCD|Add0~73_sumout $end
$var wire 1 e etapa3_DecodificadorBinarioParaBCD|Add0~74 $end
$var wire 1 f etapa3_DecodificadorBinarioParaBCD|Add0~69_sumout $end
$var wire 1 g etapa3_DecodificadorBinarioParaBCD|Add0~70 $end
$var wire 1 h etapa3_DecodificadorBinarioParaBCD|Add0~65_sumout $end
$var wire 1 i etapa3_DecodificadorBinarioParaBCD|Add0~66 $end
$var wire 1 j etapa3_DecodificadorBinarioParaBCD|Add0~61_sumout $end
$var wire 1 k etapa3_DecodificadorBinarioParaBCD|Add0~62 $end
$var wire 1 l etapa3_DecodificadorBinarioParaBCD|Add0~57_sumout $end
$var wire 1 m etapa3_DecodificadorBinarioParaBCD|Add0~58 $end
$var wire 1 n etapa3_DecodificadorBinarioParaBCD|Add0~53_sumout $end
$var wire 1 o etapa3_DecodificadorBinarioParaBCD|Add0~54 $end
$var wire 1 p etapa3_DecodificadorBinarioParaBCD|Add0~49_sumout $end
$var wire 1 q etapa3_DecodificadorBinarioParaBCD|Add0~50 $end
$var wire 1 r etapa3_DecodificadorBinarioParaBCD|Add0~45_sumout $end
$var wire 1 s etapa3_DecodificadorBinarioParaBCD|Add0~46 $end
$var wire 1 t etapa3_DecodificadorBinarioParaBCD|Add0~41_sumout $end
$var wire 1 u etapa3_DecodificadorBinarioParaBCD|Add0~42 $end
$var wire 1 v etapa3_DecodificadorBinarioParaBCD|Add0~37_sumout $end
$var wire 1 w etapa3_DecodificadorBinarioParaBCD|Add0~38 $end
$var wire 1 x etapa3_DecodificadorBinarioParaBCD|Add0~33_sumout $end
$var wire 1 y etapa3_DecodificadorBinarioParaBCD|Add0~34 $end
$var wire 1 z etapa3_DecodificadorBinarioParaBCD|Add0~29_sumout $end
$var wire 1 { etapa3_DecodificadorBinarioParaBCD|Add0~30 $end
$var wire 1 | etapa3_DecodificadorBinarioParaBCD|Add0~25_sumout $end
$var wire 1 } etapa3_DecodificadorBinarioParaBCD|Add0~26 $end
$var wire 1 ~ etapa3_DecodificadorBinarioParaBCD|Add0~21_sumout $end
$var wire 1 !! etapa3_DecodificadorBinarioParaBCD|Add0~22 $end
$var wire 1 "! etapa3_DecodificadorBinarioParaBCD|Add0~17_sumout $end
$var wire 1 #! etapa3_DecodificadorBinarioParaBCD|Add0~18 $end
$var wire 1 $! etapa3_DecodificadorBinarioParaBCD|Add0~13_sumout $end
$var wire 1 %! etapa3_DecodificadorBinarioParaBCD|Add0~14 $end
$var wire 1 &! etapa3_DecodificadorBinarioParaBCD|Add0~1_sumout $end
$var wire 1 '! etapa3_DecodificadorBinarioParaBCD|deveCarregar~0_combout $end
$var wire 1 (! etapa3_DecodificadorBinarioParaBCD|bitsUnidade~1_combout $end
$var wire 1 )! etapa3_DecodificadorBinarioParaBCD|bitsUnidade~3_combout $end
$var wire 1 *! etapa3_DecodificadorBinarioParaBCD|bitsUnidade~4_combout $end
$var wire 1 +! etapa3_DecodificadorBinarioParaBCD|bitsUnidade[1]~2_combout $end
$var wire 1 ,! etapa1_DivisorDeFrequencia|Add0~13_sumout $end
$var wire 1 -! etapa1_DivisorDeFrequencia|LessThan0~0_combout $end
$var wire 1 .! etapa1_DivisorDeFrequencia|LessThan0~1_combout $end
$var wire 1 /! etapa1_DivisorDeFrequencia|LessThan0~2_combout $end
$var wire 1 0! etapa1_DivisorDeFrequencia|LessThan0~3_combout $end
$var wire 1 1! etapa1_DivisorDeFrequencia|LessThan0~4_combout $end
$var wire 1 2! etapa1_DivisorDeFrequencia|LessThan0~5_combout $end
$var wire 1 3! etapa1_DivisorDeFrequencia|LessThan0~6_combout $end
$var wire 1 4! etapa1_DivisorDeFrequencia|LessThan0~7_combout $end
$var wire 1 5! etapa1_DivisorDeFrequencia|Add0~14 $end
$var wire 1 6! etapa1_DivisorDeFrequencia|Add0~17_sumout $end
$var wire 1 7! etapa1_DivisorDeFrequencia|Add0~18 $end
$var wire 1 8! etapa1_DivisorDeFrequencia|Add0~9_sumout $end
$var wire 1 9! etapa1_DivisorDeFrequencia|Add0~10 $end
$var wire 1 :! etapa1_DivisorDeFrequencia|Add0~5_sumout $end
$var wire 1 ;! etapa1_DivisorDeFrequencia|Add0~6 $end
$var wire 1 <! etapa1_DivisorDeFrequencia|Add0~33_sumout $end
$var wire 1 =! etapa1_DivisorDeFrequencia|Add0~34 $end
$var wire 1 >! etapa1_DivisorDeFrequencia|Add0~29_sumout $end
$var wire 1 ?! etapa1_DivisorDeFrequencia|Add0~30 $end
$var wire 1 @! etapa1_DivisorDeFrequencia|Add0~25_sumout $end
$var wire 1 A! etapa1_DivisorDeFrequencia|Add0~26 $end
$var wire 1 B! etapa1_DivisorDeFrequencia|Add0~21_sumout $end
$var wire 1 C! etapa1_DivisorDeFrequencia|Add0~22 $end
$var wire 1 D! etapa1_DivisorDeFrequencia|Add0~89_sumout $end
$var wire 1 E! etapa1_DivisorDeFrequencia|Add0~90 $end
$var wire 1 F! etapa1_DivisorDeFrequencia|Add0~53_sumout $end
$var wire 1 G! etapa1_DivisorDeFrequencia|Add0~54 $end
$var wire 1 H! etapa1_DivisorDeFrequencia|Add0~49_sumout $end
$var wire 1 I! etapa1_DivisorDeFrequencia|Add0~50 $end
$var wire 1 J! etapa1_DivisorDeFrequencia|Add0~45_sumout $end
$var wire 1 K! etapa1_DivisorDeFrequencia|Add0~46 $end
$var wire 1 L! etapa1_DivisorDeFrequencia|Add0~41_sumout $end
$var wire 1 M! etapa1_DivisorDeFrequencia|Add0~42 $end
$var wire 1 N! etapa1_DivisorDeFrequencia|Add0~37_sumout $end
$var wire 1 O! etapa1_DivisorDeFrequencia|Add0~38 $end
$var wire 1 P! etapa1_DivisorDeFrequencia|Add0~65_sumout $end
$var wire 1 Q! etapa1_DivisorDeFrequencia|Add0~66 $end
$var wire 1 R! etapa1_DivisorDeFrequencia|Add0~85_sumout $end
$var wire 1 S! etapa1_DivisorDeFrequencia|Add0~86 $end
$var wire 1 T! etapa1_DivisorDeFrequencia|Add0~81_sumout $end
$var wire 1 U! etapa1_DivisorDeFrequencia|Add0~82 $end
$var wire 1 V! etapa1_DivisorDeFrequencia|Add0~77_sumout $end
$var wire 1 W! etapa1_DivisorDeFrequencia|Add0~78 $end
$var wire 1 X! etapa1_DivisorDeFrequencia|Add0~73_sumout $end
$var wire 1 Y! etapa1_DivisorDeFrequencia|Add0~74 $end
$var wire 1 Z! etapa1_DivisorDeFrequencia|Add0~69_sumout $end
$var wire 1 [! etapa1_DivisorDeFrequencia|Add0~70 $end
$var wire 1 \! etapa1_DivisorDeFrequencia|Add0~61_sumout $end
$var wire 1 ]! etapa1_DivisorDeFrequencia|Add0~62 $end
$var wire 1 ^! etapa1_DivisorDeFrequencia|Add0~125_sumout $end
$var wire 1 _! etapa1_DivisorDeFrequencia|Add0~126 $end
$var wire 1 `! etapa1_DivisorDeFrequencia|Add0~93_sumout $end
$var wire 1 a! etapa1_DivisorDeFrequencia|Add0~94 $end
$var wire 1 b! etapa1_DivisorDeFrequencia|Add0~121_sumout $end
$var wire 1 c! etapa1_DivisorDeFrequencia|Add0~122 $end
$var wire 1 d! etapa1_DivisorDeFrequencia|Add0~117_sumout $end
$var wire 1 e! etapa1_DivisorDeFrequencia|Add0~118 $end
$var wire 1 f! etapa1_DivisorDeFrequencia|Add0~113_sumout $end
$var wire 1 g! etapa1_DivisorDeFrequencia|Add0~114 $end
$var wire 1 h! etapa1_DivisorDeFrequencia|Add0~109_sumout $end
$var wire 1 i! etapa1_DivisorDeFrequencia|Add0~110 $end
$var wire 1 j! etapa1_DivisorDeFrequencia|Add0~57_sumout $end
$var wire 1 k! etapa1_DivisorDeFrequencia|Add0~58 $end
$var wire 1 l! etapa1_DivisorDeFrequencia|Add0~105_sumout $end
$var wire 1 m! etapa1_DivisorDeFrequencia|Add0~106 $end
$var wire 1 n! etapa1_DivisorDeFrequencia|Add0~101_sumout $end
$var wire 1 o! etapa1_DivisorDeFrequencia|Add0~102 $end
$var wire 1 p! etapa1_DivisorDeFrequencia|Add0~97_sumout $end
$var wire 1 q! etapa1_DivisorDeFrequencia|Add0~98 $end
$var wire 1 r! etapa1_DivisorDeFrequencia|Add0~1_sumout $end
$var wire 1 s! etapa1_DivisorDeFrequencia|clockLento~0_combout $end
$var wire 1 t! etapa1_DivisorDeFrequencia|clockLento~q $end
$var wire 1 u! etapa2_Contador4Bits|valorAtual[0]~3_combout $end
$var wire 1 v! etapa2_Contador4Bits|valorAtual[1]~0_combout $end
$var wire 1 w! etapa2_Contador4Bits|valorAtual[2]~1_combout $end
$var wire 1 x! etapa2_Contador4Bits|valorAtual[3]~2_combout $end
$var wire 1 y! etapa3_DecodificadorBinarioParaBCD|Mux0~0_combout $end
$var wire 1 z! etapa3_DecodificadorBinarioParaBCD|bitsUnidade~0_combout $end
$var wire 1 {! visorUnidade[0]~reg0_q $end
$var wire 1 |! visorUnidade[1]~reg0_q $end
$var wire 1 }! visorUnidade[2]~reg0_q $end
$var wire 1 ~! visorUnidade[3]~reg0_q $end
$var wire 1 !" etapa3_DecodificadorBinarioParaBCD|bitsDezena~1_combout $end
$var wire 1 "" etapa3_DecodificadorBinarioParaBCD|bitsDezena~3_combout $end
$var wire 1 #" etapa3_DecodificadorBinarioParaBCD|bitsDezena~4_combout $end
$var wire 1 $" etapa3_DecodificadorBinarioParaBCD|bitsDezena~5_combout $end
$var wire 1 %" etapa3_DecodificadorBinarioParaBCD|bitsDezena[0]~2_combout $end
$var wire 1 &" visorDezena[0]~reg0_q $end
$var wire 1 '" visorDezena[1]~reg0_q $end
$var wire 1 (" visorDezena[2]~reg0_q $end
$var wire 1 )" visorDezena[3]~reg0_q $end
$var wire 1 *" debugSaidaClockLento~reg0_q $end
$var wire 1 +" debugSaidaFioValorAtual[0]~reg0_q $end
$var wire 1 ," debugSaidaFioValorAtual[1]~reg0_q $end
$var wire 1 -" debugSaidaFioValorAtual[2]~reg0_q $end
$var wire 1 ." debugSaidaFioValorAtual[3]~reg0_q $end
$var wire 1 /" etapa2_Contador4Bits|valorAtual [3] $end
$var wire 1 0" etapa2_Contador4Bits|valorAtual [2] $end
$var wire 1 1" etapa2_Contador4Bits|valorAtual [1] $end
$var wire 1 2" etapa2_Contador4Bits|valorAtual [0] $end
$var wire 1 3" etapa3_DecodificadorBinarioParaBCD|bitsUnidade [3] $end
$var wire 1 4" etapa3_DecodificadorBinarioParaBCD|bitsUnidade [2] $end
$var wire 1 5" etapa3_DecodificadorBinarioParaBCD|bitsUnidade [1] $end
$var wire 1 6" etapa3_DecodificadorBinarioParaBCD|bitsUnidade [0] $end
$var wire 1 7" etapa3_DecodificadorBinarioParaBCD|contBinario [31] $end
$var wire 1 8" etapa3_DecodificadorBinarioParaBCD|contBinario [30] $end
$var wire 1 9" etapa3_DecodificadorBinarioParaBCD|contBinario [29] $end
$var wire 1 :" etapa3_DecodificadorBinarioParaBCD|contBinario [28] $end
$var wire 1 ;" etapa3_DecodificadorBinarioParaBCD|contBinario [27] $end
$var wire 1 <" etapa3_DecodificadorBinarioParaBCD|contBinario [26] $end
$var wire 1 =" etapa3_DecodificadorBinarioParaBCD|contBinario [25] $end
$var wire 1 >" etapa3_DecodificadorBinarioParaBCD|contBinario [24] $end
$var wire 1 ?" etapa3_DecodificadorBinarioParaBCD|contBinario [23] $end
$var wire 1 @" etapa3_DecodificadorBinarioParaBCD|contBinario [22] $end
$var wire 1 A" etapa3_DecodificadorBinarioParaBCD|contBinario [21] $end
$var wire 1 B" etapa3_DecodificadorBinarioParaBCD|contBinario [20] $end
$var wire 1 C" etapa3_DecodificadorBinarioParaBCD|contBinario [19] $end
$var wire 1 D" etapa3_DecodificadorBinarioParaBCD|contBinario [18] $end
$var wire 1 E" etapa3_DecodificadorBinarioParaBCD|contBinario [17] $end
$var wire 1 F" etapa3_DecodificadorBinarioParaBCD|contBinario [16] $end
$var wire 1 G" etapa3_DecodificadorBinarioParaBCD|contBinario [15] $end
$var wire 1 H" etapa3_DecodificadorBinarioParaBCD|contBinario [14] $end
$var wire 1 I" etapa3_DecodificadorBinarioParaBCD|contBinario [13] $end
$var wire 1 J" etapa3_DecodificadorBinarioParaBCD|contBinario [12] $end
$var wire 1 K" etapa3_DecodificadorBinarioParaBCD|contBinario [11] $end
$var wire 1 L" etapa3_DecodificadorBinarioParaBCD|contBinario [10] $end
$var wire 1 M" etapa3_DecodificadorBinarioParaBCD|contBinario [9] $end
$var wire 1 N" etapa3_DecodificadorBinarioParaBCD|contBinario [8] $end
$var wire 1 O" etapa3_DecodificadorBinarioParaBCD|contBinario [7] $end
$var wire 1 P" etapa3_DecodificadorBinarioParaBCD|contBinario [6] $end
$var wire 1 Q" etapa3_DecodificadorBinarioParaBCD|contBinario [5] $end
$var wire 1 R" etapa3_DecodificadorBinarioParaBCD|contBinario [4] $end
$var wire 1 S" etapa3_DecodificadorBinarioParaBCD|contBinario [3] $end
$var wire 1 T" etapa3_DecodificadorBinarioParaBCD|contBinario [2] $end
$var wire 1 U" etapa3_DecodificadorBinarioParaBCD|contBinario [1] $end
$var wire 1 V" etapa3_DecodificadorBinarioParaBCD|contBinario [0] $end
$var wire 1 W" etapa3_DecodificadorBinarioParaBCD|bitsDezena [3] $end
$var wire 1 X" etapa3_DecodificadorBinarioParaBCD|bitsDezena [2] $end
$var wire 1 Y" etapa3_DecodificadorBinarioParaBCD|bitsDezena [1] $end
$var wire 1 Z" etapa3_DecodificadorBinarioParaBCD|bitsDezena [0] $end
$var wire 1 [" etapa1_DivisorDeFrequencia|contador [31] $end
$var wire 1 \" etapa1_DivisorDeFrequencia|contador [30] $end
$var wire 1 ]" etapa1_DivisorDeFrequencia|contador [29] $end
$var wire 1 ^" etapa1_DivisorDeFrequencia|contador [28] $end
$var wire 1 _" etapa1_DivisorDeFrequencia|contador [27] $end
$var wire 1 `" etapa1_DivisorDeFrequencia|contador [26] $end
$var wire 1 a" etapa1_DivisorDeFrequencia|contador [25] $end
$var wire 1 b" etapa1_DivisorDeFrequencia|contador [24] $end
$var wire 1 c" etapa1_DivisorDeFrequencia|contador [23] $end
$var wire 1 d" etapa1_DivisorDeFrequencia|contador [22] $end
$var wire 1 e" etapa1_DivisorDeFrequencia|contador [21] $end
$var wire 1 f" etapa1_DivisorDeFrequencia|contador [20] $end
$var wire 1 g" etapa1_DivisorDeFrequencia|contador [19] $end
$var wire 1 h" etapa1_DivisorDeFrequencia|contador [18] $end
$var wire 1 i" etapa1_DivisorDeFrequencia|contador [17] $end
$var wire 1 j" etapa1_DivisorDeFrequencia|contador [16] $end
$var wire 1 k" etapa1_DivisorDeFrequencia|contador [15] $end
$var wire 1 l" etapa1_DivisorDeFrequencia|contador [14] $end
$var wire 1 m" etapa1_DivisorDeFrequencia|contador [13] $end
$var wire 1 n" etapa1_DivisorDeFrequencia|contador [12] $end
$var wire 1 o" etapa1_DivisorDeFrequencia|contador [11] $end
$var wire 1 p" etapa1_DivisorDeFrequencia|contador [10] $end
$var wire 1 q" etapa1_DivisorDeFrequencia|contador [9] $end
$var wire 1 r" etapa1_DivisorDeFrequencia|contador [8] $end
$var wire 1 s" etapa1_DivisorDeFrequencia|contador [7] $end
$var wire 1 t" etapa1_DivisorDeFrequencia|contador [6] $end
$var wire 1 u" etapa1_DivisorDeFrequencia|contador [5] $end
$var wire 1 v" etapa1_DivisorDeFrequencia|contador [4] $end
$var wire 1 w" etapa1_DivisorDeFrequencia|contador [3] $end
$var wire 1 x" etapa1_DivisorDeFrequencia|contador [2] $end
$var wire 1 y" etapa1_DivisorDeFrequencia|contador [1] $end
$var wire 1 z" etapa1_DivisorDeFrequencia|contador [0] $end
$var wire 1 {" etapa3_DecodificadorBinarioParaBCD|saidaUnidade [3] $end
$var wire 1 |" etapa3_DecodificadorBinarioParaBCD|saidaUnidade [2] $end
$var wire 1 }" etapa3_DecodificadorBinarioParaBCD|saidaUnidade [1] $end
$var wire 1 ~" etapa3_DecodificadorBinarioParaBCD|saidaUnidade [0] $end
$var wire 1 !# etapa3_DecodificadorBinarioParaBCD|saidaDezena [3] $end
$var wire 1 "# etapa3_DecodificadorBinarioParaBCD|saidaDezena [2] $end
$var wire 1 ## etapa3_DecodificadorBinarioParaBCD|saidaDezena [1] $end
$var wire 1 $# etapa3_DecodificadorBinarioParaBCD|saidaDezena [0] $end
$var wire 1 %# etapa3_DecodificadorBinarioParaBCD|deveCarregar [31] $end
$var wire 1 &# etapa3_DecodificadorBinarioParaBCD|deveCarregar [30] $end
$var wire 1 '# etapa3_DecodificadorBinarioParaBCD|deveCarregar [29] $end
$var wire 1 (# etapa3_DecodificadorBinarioParaBCD|deveCarregar [28] $end
$var wire 1 )# etapa3_DecodificadorBinarioParaBCD|deveCarregar [27] $end
$var wire 1 *# etapa3_DecodificadorBinarioParaBCD|deveCarregar [26] $end
$var wire 1 +# etapa3_DecodificadorBinarioParaBCD|deveCarregar [25] $end
$var wire 1 ,# etapa3_DecodificadorBinarioParaBCD|deveCarregar [24] $end
$var wire 1 -# etapa3_DecodificadorBinarioParaBCD|deveCarregar [23] $end
$var wire 1 .# etapa3_DecodificadorBinarioParaBCD|deveCarregar [22] $end
$var wire 1 /# etapa3_DecodificadorBinarioParaBCD|deveCarregar [21] $end
$var wire 1 0# etapa3_DecodificadorBinarioParaBCD|deveCarregar [20] $end
$var wire 1 1# etapa3_DecodificadorBinarioParaBCD|deveCarregar [19] $end
$var wire 1 2# etapa3_DecodificadorBinarioParaBCD|deveCarregar [18] $end
$var wire 1 3# etapa3_DecodificadorBinarioParaBCD|deveCarregar [17] $end
$var wire 1 4# etapa3_DecodificadorBinarioParaBCD|deveCarregar [16] $end
$var wire 1 5# etapa3_DecodificadorBinarioParaBCD|deveCarregar [15] $end
$var wire 1 6# etapa3_DecodificadorBinarioParaBCD|deveCarregar [14] $end
$var wire 1 7# etapa3_DecodificadorBinarioParaBCD|deveCarregar [13] $end
$var wire 1 8# etapa3_DecodificadorBinarioParaBCD|deveCarregar [12] $end
$var wire 1 9# etapa3_DecodificadorBinarioParaBCD|deveCarregar [11] $end
$var wire 1 :# etapa3_DecodificadorBinarioParaBCD|deveCarregar [10] $end
$var wire 1 ;# etapa3_DecodificadorBinarioParaBCD|deveCarregar [9] $end
$var wire 1 <# etapa3_DecodificadorBinarioParaBCD|deveCarregar [8] $end
$var wire 1 =# etapa3_DecodificadorBinarioParaBCD|deveCarregar [7] $end
$var wire 1 ># etapa3_DecodificadorBinarioParaBCD|deveCarregar [6] $end
$var wire 1 ?# etapa3_DecodificadorBinarioParaBCD|deveCarregar [5] $end
$var wire 1 @# etapa3_DecodificadorBinarioParaBCD|deveCarregar [4] $end
$var wire 1 A# etapa3_DecodificadorBinarioParaBCD|deveCarregar [3] $end
$var wire 1 B# etapa3_DecodificadorBinarioParaBCD|deveCarregar [2] $end
$var wire 1 C# etapa3_DecodificadorBinarioParaBCD|deveCarregar [1] $end
$var wire 1 D# etapa3_DecodificadorBinarioParaBCD|deveCarregar [0] $end
$upscope $end
$upscope $end
$enddefinitions $end
#0
$dumpvars
0!
0"
0&
0%
0$
0#
0*
0)
0(
0'
0.
0-
0,
0+
0/
10
x1
12
13
14
05
06
07
08
09
0:
0;
0<
0=
0>
0?
0@
0A
0B
0C
1D
1E
1F
1G
0H
1I
0J
1K
0L
1M
0N
1O
0P
1Q
0R
1S
0T
1U
0V
1W
0X
1Y
0Z
1[
0\
1]
0^
1_
0`
1a
0b
1c
0d
1e
0f
1g
0h
1i
0j
1k
0l
1m
0n
1o
0p
1q
0r
1s
0t
1u
0v
1w
0x
1y
0z
1{
0|
1}
0~
1!!
0"!
1#!
0$!
1%!
0&!
1'!
0(!
0)!
0*!
1+!
1,!
0-!
0.!
1/!
10!
11!
12!
13!
04!
05!
06!
07!
08!
09!
0:!
0;!
0<!
0=!
0>!
0?!
0@!
0A!
0B!
0C!
0D!
0E!
0F!
0G!
0H!
0I!
0J!
0K!
0L!
0M!
0N!
0O!
0P!
0Q!
0R!
0S!
0T!
0U!
0V!
0W!
0X!
0Y!
0Z!
0[!
0\!
0]!
0^!
0_!
0`!
0a!
0b!
0c!
0d!
0e!
0f!
0g!
0h!
0i!
0j!
0k!
0l!
0m!
0n!
0o!
0p!
0q!
0r!
0s!
0t!
1u!
0v!
0w!
0x!
0y!
0z!
0{!
0|!
0}!
0~!
0!"
0""
0#"
0$"
1%"
0&"
0'"
0("
0)"
0*"
0+"
0,"
0-"
0."
02"
01"
00"
0/"
06"
05"
04"
03"
0V"
0U"
0T"
0S"
0R"
0Q"
0P"
0O"
0N"
0M"
0L"
0K"
0J"
0I"
0H"
0G"
0F"
0E"
0D"
0C"
0B"
0A"
0@"
0?"
0>"
0="
0<"
0;"
0:"
09"
08"
07"
0Z"
0Y"
0X"
0W"
0z"
0y"
0x"
0w"
0v"
0u"
0t"
0s"
0r"
0q"
0p"
0o"
0n"
0m"
0l"
0k"
0j"
0i"
0h"
0g"
0f"
0e"
0d"
0c"
0b"
0a"
0`"
0_"
0^"
0]"
0\"
0["
0~"
0}"
0|"
0{"
0$#
0##
0"#
0!#
0D#
zC#
zB#
zA#
z@#
z?#
z>#
z=#
z<#
z;#
z:#
z9#
z8#
z7#
z6#
z5#
z4#
z3#
z2#
z1#
z0#
z/#
z.#
z-#
z,#
z+#
z*#
z)#
z(#
z'#
z&#
z%#
$end
#50
1!
1B
1z"
1D#
1V"
0F
1C
0E
15!
1""
1!"
1(!
0'!
0,!
0G
0%"
0+!
16!
0D
1H
#100
0!
0B
#150
1!
1B
1y"
0z"
0D#
1E
05!
17!
0""
0!"
0(!
1'!
1,!
06!
07!
1%"
1+!
16!
18!
08!
#200
0!
0B
#250
1!
1B
1z"
1D#
1U"
0V"
1F
0C
0I
1G
0E
15!
1""
1!"
1(!
0'!
0,!
1I
0G
0K
17!
0%"
0+!
1J
06!
0H
1D
1K
0M
0J
1L
18!
1H
1M
0O
0L
1N
1O
0Q
0N
1P
1Q
0S
0P
1R
1S
0U
0R
1T
1U
0W
0T
1V
1W
0Y
0V
1X
1Y
0[
0X
1Z
1[
0]
0Z
1\
1]
0_
0\
1^
1_
0a
0^
1`
1a
0c
0`
1b
1c
0e
0b
1d
1e
0g
0d
1f
1g
0i
0f
1h
1i
0k
0h
1j
1k
0m
0j
1l
1m
0o
0l
1n
1o
0q
0n
1p
1q
0s
0p
1r
1s
0u
0r
1t
1u
0w
0t
1v
1w
0y
0v
1x
1y
0{
0x
1z
1{
0}
0z
1|
1}
0!!
0|
1~
1!!
0#!
0~
1"!
1#!
0%!
0"!
1$!
1%!
0$!
1&!
0&!
#300
0!
0B
#350
1!
1B
1x"
0y"
0z"
0D#
1E
05!
07!
19!
0""
0!"
0(!
1'!
1,!
16!
08!
09!
1%"
1+!
06!
18!
1:!
0:!
#400
0!
0B
#450
1!
1B
1z"
1D#
1V"
0F
1C
0E
15!
1""
1!"
1(!
0'!
0,!
0I
1G
0%"
0+!
16!
0D
0K
1J
0H
0M
1L
0O
1N
0Q
1P
0S
1R
0U
1T
0W
1V
0Y
1X
0[
1Z
0]
1\
0_
1^
0a
1`
0c
1b
0e
1d
0g
1f
0i
1h
0k
1j
0m
1l
0o
1n
0q
1p
0s
1r
0u
1t
0w
1v
0y
1x
0{
1z
0}
1|
0!!
1~
0#!
1"!
0%!
1$!
1&!
#500
0!
0B
#550
1!
1B
1y"
0z"
0D#
1E
05!
17!
0""
0!"
0(!
1'!
1,!
06!
07!
19!
1%"
1+!
16!
08!
09!
18!
1:!
0:!
#600
0!
0B
#650
1!
1B
1z"
1D#
17"
18"
19"
1:"
1;"
1<"
1="
1>"
1?"
1@"
1A"
1B"
1C"
1D"
1E"
1F"
1G"
1H"
1I"
1J"
1K"
1L"
1M"
1N"
1O"
1P"
1Q"
1R"
1S"
1T"
0U"
0V"
1F
0C
1I
0G
1K
1M
1O
1Q
1S
1U
1W
1Y
1[
1]
1_
1a
1c
1e
1g
1i
1k
1m
1o
1q
1s
1u
1w
1y
1{
1}
1!!
1#!
1%!
15!
0J
0L
0N
0P
0R
0T
0V
0X
0Z
0\
0^
0`
0b
0d
0f
0h
0j
0l
0n
0p
0r
0t
0v
0x
0z
0|
0~
0"!
0$!
0'!
0&!
1""
1!"
1(!
0,!
1G
17!
1J
1L
1N
1P
1R
1T
1V
1X
1Z
1\
1^
1`
1b
1d
1f
1h
1j
1l
1n
1p
1r
1t
1v
1x
1z
1|
1~
1"!
1$!
1&!
06!
19!
08!
1:!
#700
0!
0B
#750
1!
1B
1w"
0x"
0y"
0z"
0D#
07"
08"
09"
0:"
0;"
0<"
0="
0>"
0?"
0@"
0A"
0B"
0C"
0D"
0E"
0F"
0G"
0H"
0I"
0J"
0K"
0L"
0M"
0N"
0O"
0P"
0Q"
0R"
0S"
0T"
05!
07!
09!
1;!
0J
0L
0N
0P
0R
0T
0V
0X
0Z
0\
0^
0`
0b
0d
0f
0h
0j
0l
0n
0p
0r
0t
0v
0x
0z
0|
0~
0"!
0$!
1'!
0&!
1D
0""
0!"
0(!
1,!
16!
18!
0:!
0;!
06!
08!
1:!
1<!
0<!
#800
0!
0B
