Etapa2_Contador4Bits/simulation/qsim/Etapa2_Contador4Bits.msim.vcd
$comment
	File created using the following command:
		vcd file Etapa2_Contador4Bits.msim.vcd -direction
$end
$date
	Fri Mar 22 09:43:17 2024
$end
$version
	ModelSim Version 2020.1
$end
$timescale
	1ps
$end

$scope module Etapa2_Contador4Bits_vlg_vec_tst $end
$var reg 1 ! clock $end
$var wire 1 " valorAtual [3] $end
$var wire 1 # valorAtual [2] $end
$var wire 1 $ valorAtual [1] $end
$var wire 1 % valorAtual [0] $end

$scope module i1 $end
$var wire 1 & gnd $end
$var wire 1 ' vcc $end
$var wire 1 ( unknown $end
$var tri1 1 ) devclrn $end
$var tri1 1 * devpor $end
$var tri1 1 + devoe $end
$var wire 1 , valorAtual[0]~output_o $end
$var wire 1 - valorAtual[1]~output_o $end
$var wire 1 . valorAtual[2]~output_o $end
$var wire 1 / valorAtual[3]~output_o $end
$var wire 1 0 clock~input_o $end
$var wire 1 1 valorAtual[0]~3_combout $end
$var wire 1 2 valorAtual[0]~reg0_q $end
$var wire 1 3 valorAtual[1]~0_combout $end
$var wire 1 4 valorAtual[1]~reg0_q $end
$var wire 1 5 valorAtual[2]~1_combout $end
$var wire 1 6 valorAtual[2]~reg0_q $end
$var wire 1 7 valorAtual[3]~2_combout $end
$var wire 1 8 valorAtual[3]~reg0_q $end
$upscope $end
$upscope $end
$enddefinitions $end
#0
$dumpvars
0!
0%
0$
0#
0"
0&
1'
x(
1)
1*
1+
0,
0-
0.
0/
00
11
02
03
04
05
06
07
08
$end
#20000
1!
10
12
1,
1%
13
01
#40000
0!
00
#60000
1!
10
14
02
0,
1-
1$
0%
11
#80000
0!
00
#100000
1!
10
12
1,
1%
15
03
01
#120000
0!
00
#140000
1!
10
16
04
02
0,
0-
1.
1#
0$
0%
11
#160000
0!
00
#180000
1!
10
12
1,
1%
13
01
#200000
0!
00
#220000
1!
10
14
02
0,
1-
1$
0%
11
#240000
0!
00
#260000
1!
10
12
1,
1%
17
05
03
01
#280000
0!
00
#300000
1!
10
18
06
04
02
0,
0-
0.
1/
1"
0#
0$
0%
11
#320000
0!
00
#340000
1!
10
12
1,
1%
13
01
#360000
0!
00
#380000
1!
10
14
02
0,
1-
1$
0%
11
#400000
0!
00
#420000
1!
10
12
1,
1%
15
03
01
#440000
0!
00
#460000
1!
10
16
04
02
0,
0-
1.
1#
0$
0%
11
#480000
0!
00
#500000
1!
10
12
1,
1%
13
01
#520000
0!
00
#540000
1!
10
14
02
0,
1-
1$
0%
11
#560000
0!
00
#580000
1!
10
12
1,
1%
07
05
03
01
#600000
0!
00
#620000
1!
10
08
06
04
02
0,
0-
0.
0/
0"
0#
0$
0%
11
#640000
0!
00
#660000
1!
10
12
1,
1%
13
01
#680000
0!
00
#700000
1!
10
14
02
0,
1-
1$
0%
11
#720000
0!
00
#740000
1!
10
12
1,
1%
15
03
01
#760000
0!
00
#780000
1!
10
16
04
02
0,
0-
1.
1#
0$
0%
11
#800000
0!
00
#820000
1!
10
12
1,
1%
13
01
#840000
0!
00
#860000
1!
10
14
02
0,
1-
1$
0%
11
#880000
0!
00
#900000
1!
10
12
1,
1%
17
05
03
01
#920000
0!
00
#940000
1!
10
18
06
04
02
0,
0-
0.
1/
1"
0#
0$
0%
11
#960000
0!
00
#980000
1!
10
12
1,
1%
13
01
